lab/lab3/Quartus/simulation/qsim/lab3.msim.vcd
$comment
	File created using the following command:
		vcd file lab3.msim.vcd -direction
$end
$date
	Thu Sep 30 09:31:44 2021
$end
$version
	ModelSim Version 10.5b
$end
$timescale
	1ps
$end

$scope module lab3_vlg_vec_tst $end
$var reg 1 ! CLK $end
$var reg 1 " D0 $end
$var reg 1 # D1 $end
$var reg 1 $ D2 $end
$var reg 1 % D3 $end
$var reg 1 & EXECUTE $end
$var reg 1 ' F0 $end
$var reg 1 ( F1 $end
$var reg 1 ) F2 $end
$var reg 1 * LOAD_A $end
$var reg 1 + LOAD_B $end
$var reg 1 , R0 $end
$var reg 1 - R1 $end
$var wire 1 . C0 $end
$var wire 1 / C1 $end
$var wire 1 0 PN $end
$var wire 1 1 Q $end
$var wire 1 2 RA0 $end
$var wire 1 3 RA1 $end
$var wire 1 4 RA2 $end
$var wire 1 5 RA3 $end
$var wire 1 6 RB0 $end
$var wire 1 7 RB1 $end
$var wire 1 8 RB2 $end
$var wire 1 9 RB3 $end
$var wire 1 : S $end
$var wire 1 ; S0 $end
$var wire 1 < S1 $end

$scope module i1 $end
$var wire 1 = gnd $end
$var wire 1 > vcc $end
$var wire 1 ? unknown $end
$var tri1 1 @ devclrn $end
$var tri1 1 A devpor $end
$var tri1 1 B devoe $end
$var wire 1 C RA0~output_o $end
$var wire 1 D RA1~output_o $end
$var wire 1 E RA2~output_o $end
$var wire 1 F RA3~output_o $end
$var wire 1 G RB0~output_o $end
$var wire 1 H RB1~output_o $end
$var wire 1 I RB2~output_o $end
$var wire 1 J RB3~output_o $end
$var wire 1 K C0~output_o $end
$var wire 1 L C1~output_o $end
$var wire 1 M S~output_o $end
$var wire 1 N Q~output_o $end
$var wire 1 O PN~output_o $end
$var wire 1 P S1~output_o $end
$var wire 1 Q S0~output_o $end
$var wire 1 R CLK~input_o $end
$var wire 1 S CLK~inputclkctrl_outclk $end
$var wire 1 T D0~input_o $end
$var wire 1 U LOAD_A~input_o $end
$var wire 1 V R0~input_o $end
$var wire 1 W D3~input_o $end
$var wire 1 X D2~input_o $end
$var wire 1 Y D1~input_o $end
$var wire 1 Z registerA|36~0_combout $end
$var wire 1 [ EXECUTE~input_o $end
$var wire 1 \ inst32|4~combout $end
$var wire 1 ] inst27|9~q $end
$var wire 1 ^ inst2|3~0_combout $end
$var wire 1 _ inst2|3~q $end
$var wire 1 ` inst2|15~0_combout $end
$var wire 1 a inst2|15~q $end
$var wire 1 b registerA|34~0_combout $end
$var wire 1 c registerA|34~1_combout $end
$var wire 1 d registerA|40~q $end
$var wire 1 e registerA|35~0_combout $end
$var wire 1 f registerA|39~q $end
$var wire 1 g inst28|4~combout $end
$var wire 1 h registerA|34~2_combout $end
$var wire 1 i registerA|34~3_combout $end
$var wire 1 j registerA|38~q $end
$var wire 1 k R1~input_o $end
$var wire 1 l LOAD_B~input_o $end
$var wire 1 m F2~input_o $end
$var wire 1 n F0~input_o $end
$var wire 1 o F1~input_o $end
$var wire 1 p inst19|9~0_combout $end
$var wire 1 q registerB|37~0_combout $end
$var wire 1 r registerB|37~1_combout $end
$var wire 1 s registerB|37~2_combout $end
$var wire 1 t inst3|4~combout $end
$var wire 1 u registerB|41~q $end
$var wire 1 v registerB|36~0_combout $end
$var wire 1 w registerB|40~q $end
$var wire 1 x registerB|35~0_combout $end
$var wire 1 y registerB|39~q $end
$var wire 1 z registerB|34~0_combout $end
$var wire 1 { registerB|34~1_combout $end
$var wire 1 | registerB|38~q $end
$var wire 1 } registerA|37~1_combout $end
$var wire 1 ~ registerA|37~0_combout $end
$var wire 1 !! registerA|37~2_combout $end
$var wire 1 "! registerA|41~q $end
$upscope $end
$upscope $end
$enddefinitions $end
#0
$dumpvars
0!
0"
0#
0$
0%
0&
0'
0(
0)
0*
0+
0,
0-
0.
0/
10
01
02
03
04
05
06
07
08
09
0:
0;
0<
0=
1>
x?
1@
1A
1B
0C
0D
0E
0F
0G
0H
0I
0J
0K
0L
0M
0N
1O
0P
0Q
0R
0S
0T
0U
0V
0W
0X
0Y
0Z
0[
0\
0]
0^
0_
0`
0a
1b
0c
0d
0e
0f
0g
0h
0i
0j
0k
0l
0m
0n
0o
0p
0q
0r
0s
0t
0u
0v
0w
0x
0y
0z
0{
0|
0}
0~
0!!
0"!
$end
#5000
1!
1R
1S
#10000
1#
1"
0!
1Y
1T
0R
0S
#15000
1!
1R
1S
#20000
0!
0R
0S
#25000
1!
1R
1S
#30000
1*
0!
1U
0R
0S
1c
1!!
1Z
#35000
1!
1R
1S
1"!
1d
1D
1C
12
13
#40000
0!
0R
0S
#45000
1!
1R
1S
#50000
0#
0"
0*
0!
0Y
0T
0U
0R
0S
0c
0!!
1e
#55000
1!
1R
1S
#60000
0!
0R
0S
#65000
1!
1R
1S
#70000
1%
1$
0!
1W
1X
0R
0S
#75000
1!
1R
1S
#80000
0!
0R
0S
#85000
1!
1R
1S
#90000
1*
0!
1U
0R
0S
1c
1i
0Z
#95000
1!
1R
1S
0"!
1j
1f
0d
0D
1E
1F
0C
1}
02
15
14
03
#100000
0!
0R
0S
#105000
1!
1R
1S
#110000
0%
0$
0*
0!
0W
0X
0U
0R
0S
1h
0c
0i
0e
1!!
1i
#115000
1!
1R
1S
#120000
0!
0R
0S
#125000
1!
1R
1S
#130000
0!
0R
0S
#135000
1!
1R
1S
#140000
0!
0R
0S
#145000
1!
1R
1S
#150000
1*
0!
1U
0R
0S
0h
1c
0!!
0i
#155000
1!
1R
1S
0j
0f
0E
0F
0}
05
04
#160000
0!
0R
0S
#165000
1!
1R
1S
#170000
0*
0!
0U
0R
0S
0c
#175000
1!
1R
1S
#180000
0!
0R
0S
#185000
1!
1R
1S
#190000
1#
1"
0!
1Y
1T
0R
0S
#195000
1!
1R
1S
#200000
0!
0R
0S
#205000
1!
1R
1S
#210000
1+
0!
0R
0S
1l
1P
1<
1v
1t
1s
1Q
1;
#215000
1!
1R
1S
1w
1u
1G
1H
17
16
#220000
0!
0R
0S
#225000
1!
1R
1S
#230000
0#
0"
0+
0!
0Y
0T
0R
0S
0l
0P
0<
0s
1x
0t
0Q
0;
#235000
1!
1R
1S
#240000
0!
0R
0S
#245000
1!
1R
1S
#250000
1%
1$
0!
1W
1X
0R
0S
#255000
1!
1R
1S
#260000
0!
0R
0S
#265000
1!
1R
1S
#270000
1+
0!
0R
0S
1l
1P
1z
1<
0v
1t
1Q
1;
1{
#275000
1!
1R
1S
1|
1y
0w
0u
0G
0H
1I
1J
1r
19
18
07
06
#280000
0!
0R
0S
#285000
1!
1R
1S
#290000
0%
0$
0+
0!
0W
0X
0R
0S
0l
0P
0z
0<
0x
0t
1s
0Q
0;
#295000
1!
1R
1S
#300000
0!
0R
0S
#305000
1!
1R
1S
#310000
0!
0R
0S
#315000
1!
1R
1S
#320000
0!
0R
0S
#325000
1!
1R
1S
#330000
1+
0!
0R
0S
1l
1P
1<
0{
1t
0s
1Q
1;
#335000
1!
1R
1S
0|
0y
0I
0J
0r
09
08
#340000
0!
0R
0S
#345000
1!
1R
1S
#350000
0+
0!
0R
0S
0l
0P
0<
0t
0Q
0;
#355000
1!
1R
1S
#360000
0!
0R
0S
#365000
1!
1R
1S
#370000
0!
0R
0S
#375000
1!
1R
1S
#380000
0!
0R
0S
#385000
1!
1R
1S
#390000
0!
0R
0S
#395000
1!
1R
1S
#400000
1#
1%
1$
0!
1Y
1W
1X
0R
0S
#405000
1!
1R
1S
#410000
0!
0R
0S
#415000
1!
1R
1S
#420000
1*
0!
1U
0R
0S
1c
1i
1e
1Z
#425000
1!
1R
1S
1j
1f
1d
1D
1E
1F
1}
15
14
13
#430000
0!
0R
0S
#435000
1!
1R
1S
#440000
1"
0%
0*
0!
1T
0W
0U
0R
0S
1h
0c
1!!
0i
0Z
1i
#445000
1!
1R
1S
#450000
0!
0R
0S
#455000
1!
1R
1S
#460000
1+
0!
0R
0S
1l
1P
1<
1x
1v
1t
1s
1Q
1;
#465000
1!
1R
1S
1y
1w
1u
1G
1H
1I
18
17
16
#470000
0!
0R
0S
#475000
1!
1R
1S
#480000
0#
0$
0"
0+
0!
0Y
0X
0T
0R
0S
0l
0P
0<
0s
0t
0Q
0;
#485000
1!
1R
1S
#490000
0!
0R
0S
#495000
1!
1R
1S
#500000
1&
0!
1[
0R
0S
0b
1g
1^
1\
0O
1N
1M
1c
1z
1:
11
00
1t
1Q
1;
1{
#505000
1!
1R
1S
1]
1"!
1|
0u
0d
1_
1K
0D
0G
1J
1C
1b
1r
1p
12
19
06
03
1.
0^
1Z
0v
0e
1`
1q
1s
#510000
0!
0R
0S
#515000
1!
1R
1S
0w
1u
0f
1d
1a
0_
0K
1L
1D
0E
1G
0H
0h
07
16
04
13
1/
0.
0x
1v
1e
1^
0i
#520000
0!
0R
0S
#525000
1!
1R
1S
0y
1w
0j
1f
1_
1K
1E
0F
1H
0I
0z
0}
0p
1h
08
17
05
14
1.
1x
0`
0^
0q
0{
0!!
1i
#530000
0!
0R
0S
#535000
1!
1R
1S
0"!
0|
1y
1j
0a
0_
0K
0L
1F
1I
0J
0C
1}
0r
1z
0c
02
09
18
15
0/
0.
0Z
0g
1O
0M
0z
0:
10
1!!
0s
1{
0t
0Q
0;
0{
#540000
0!
0R
0S
#545000
1!
1R
1S
#550000
0!
0R
0S
#555000
1!
1R
1S
#560000
0!
0R
0S
#565000
1!
1R
1S
#570000
0!
0R
0S
#575000
1!
1R
1S
#580000
0!
0R
0S
#585000
1!
1R
1S
#590000
0!
0R
0S
#595000
1!
1R
1S
#600000
1,
1%
1#
1$
0&
0!
1V
1W
1Y
1X
0[
0R
0S
0\
0N
01
#605000
1!
1R
1S
0]
#610000
0!
0R
0S
#615000
1!
1R
1S
#620000
1*
0!
1U
0R
0S
0h
1c
0!!
1Z
#625000
1!
1R
1S
#630000
0!
0R
0S
#635000
1!
1R
1S
#640000
1"
0%
0*
0!
1T
0W
0U
0R
0S
1h
0c
1!!
0i
0Z
1i
#645000
1!
1R
1S
#650000
0!
0R
0S
#655000
1!
1R
1S
#660000
1+
0!
0R
0S
1l
1P
1<
1t
1s
1Q
1;
#665000
1!
1R
1S
#670000
0!
0R
0S
#675000
1!
1R
1S
#680000
0#
0$
0"
0+
0!
0Y
0X
0T
0R
0S
0l
0P
0<
0s
0t
0Q
0;
#685000
1!
1R
1S
#690000
0!
0R
0S
#695000
1!
1R
1S
#700000
1&
0!
1[
0R
0S
0b
1g
1^
1\
0O
1N
1M
1c
1z
1:
11
00
1t
1Q
1;
1{
#705000
1!
1R
1S
1]
1"!
1|
0u
0d
1_
1K
0D
0G
1J
1C
1b
1p
12
19
06
03
1.
0^
1Z
0v
0e
1`
1q
1r
1s
#710000
0!
0R
0S
#715000
1!
1R
1S
0w
1u
0f
1d
1a
0_
0K
1L
1D
0E
1G
0H
0h
07
16
04
13
1/
0.
0x
1v
1e
1^
0i
#720000
0!
0R
0S
#725000
1!
1R
1S
0y
1w
0j
1f
1_
1K
1E
0F
1H
0I
0z
0}
0p
1h
08
17
05
14
1.
1x
0`
0^
0q
0{
0!!
1i
0r
0s
#730000
0!
0R
0S
#735000
1!
1R
1S
0"!
0|
1y
0u
1j
0a
0_
0K
0L
1F
0G
1I
0J
0C
1}
1z
0c
02
09
18
06
15
0/
0.
0Z
0v
0g
1O
0M
0z
0:
10
1!!
1{
0t
0Q
0;
0{
#740000
0!
0R
0S
#745000
1!
1R
1S
#750000
0!
0R
0S
#755000
1!
1R
1S
#760000
0!
0R
0S
#765000
1!
1R
1S
#770000
0!
0R
0S
#775000
1!
1R
1S
#780000
0!
0R
0S
#785000
1!
1R
1S
#790000
0!
0R
0S
#795000
1!
1R
1S
#800000
1-
0,
1%
1#
1$
0&
0!
1k
0V
1W
1Y
1X
0[
0R
0S
0}
1q
0\
0N
01
0!!
#805000
1!
1R
1S
0]
#810000
0!
0R
0S
#815000
1!
1R
1S
#820000
1*
0!
1U
0R
0S
0h
1c
1Z
#825000
1!
1R
1S
#830000
0!
0R
0S
#835000
1!
1R
1S
#840000
1"
0%
0*
0!
1T
0W
0U
0R
0S
1h
0c
0i
0Z
1i
#845000
1!
1R
1S
#850000
0!
0R
0S
#855000
1!
1R
1S
#860000
1+
0!
0R
0S
1l
1P
1<
1v
1t
1s
1Q
1;
#865000
1!
1R
1S
1u
1G
16
#870000
0!
0R
0S
#875000
1!
1R
1S
#880000
0#
0$
0"
0+
0!
0Y
0X
0T
0R
0S
0l
0P
0<
0s
0t
0Q
0;
#885000
1!
1R
1S
#890000
0!
0R
0S
#895000
1!
1R
1S
#900000
1&
0!
1[
0R
0S
0b
1g
1^
1\
0O
1N
1M
1c
1z
1:
11
00
1t
1Q
1;
1{
#905000
1!
1R
1S
1]
1|
0u
0d
1_
1K
0D
0G
1J
1b
1r
1p
19
06
03
1.
0^
0v
0e
1`
1~
1s
1!!
#910000
0!
0R
0S
#915000
1!
1R
1S
1"!
0w
1u
0f
1a
0_
0K
1L
0E
1G
0H
1C
0h
12
07
16
04
1/
0.
1Z
0x
1v
1^
0i
#920000
0!
0R
0S
#925000
1!
1R
1S
0y
1w
0j
1d
1_
1K
1D
0F
1H
0I
0z
0q
0p
08
17
05
13
1.
1x
1e
0`
0^
0~
0{
0!!
#930000
0!
0R
0S
#935000
1!
1R
1S
0"!
0|
1y
1f
0a
0_
0K
0L
1E
1I
0J
0C
0r
1z
1h
0c
02
09
18
14
0/
0.
0Z
0g
1O
0M
0z
0h
0:
10
0s
1{
1i
0t
0Q
0;
0{
0i
#940000
0!
0R
0S
#945000
1!
1R
1S
#950000
0!
0R
0S
#955000
1!
1R
1S
#960000
0!
0R
0S
#965000
1!
1R
1S
#970000
0!
0R
0S
#975000
1!
1R
1S
#980000
0!
0R
0S
#985000
1!
1R
1S
#990000
0!
0R
0S
#995000
1!
1R
1S
#1000000
1,
1%
1#
1$
0&
0!
1V
1W
1Y
1X
0[
0R
0S
0\
0N
01
#1005000
1!
1R
1S
0]
#1010000
0!
0R
0S
#1015000
1!
1R
1S
#1020000
1*
0!
1U
0R
0S
1c
1i
1Z
#1025000
1!
1R
1S
1j
1F
1q
15
1r
1s
#1030000
0!
0R
0S
#1035000
1!
1R
1S
#1040000
1"
0%
0*
0!
1T
0W
0U
0R
0S
1h
0c
0i
0Z
1i
#1045000
1!
1R
1S
#1050000
0!
0R
0S
#1055000
1!
1R
1S
#1060000
1+
0!
0R
0S
1l
1P
1<
1t
1Q
1;
#1065000
1!
1R
1S
#1070000
0!
0R
0S
#1075000
1!
1R
1S
#1080000
0#
0$
0"
0+
0!
0Y
0X
0T
0R
0S
0l
0P
0<
0t
0Q
0;
#1085000
1!
1R
1S
#1090000
0!
0R
0S
#1095000
1!
1R
1S
#1100000
1&
0!
1[
0R
0S
0b
1g
1^
1\
0O
1N
1M
1c
1z
1:
11
00
1t
1Q
1;
1{
#1105000
1!
1R
1S
1]
1|
0d
1_
1K
0D
1J
1b
1}
1p
19
03
1.
0^
0e
1`
1!!
#1110000
0!
0R
0S
#1115000
1!
1R
1S
1"!
0f
1a
0_
0K
1L
0E
1C
0h
12
04
1/
0.
1Z
1^
0i
#1120000
0!
0R
0S
#1125000
1!
1R
1S
0j
1d
1_
1K
1D
0F
0q
0p
05
13
1.
1e
0`
0^
0r
0s
#1130000
0!
0R
0S
#1135000
1!
1R
1S
0u
1f
0a
0_
0K
0L
1E
0G
1h
0c
06
14
0/
0.
0v
0g
1O
0M
0z
0h
0:
10
1i
0t
0Q
0;
0i
#1140000
0!
0R
0S
#1145000
1!
1R
1S
#1150000
0!
0R
0S
#1155000
1!
1R
1S
#1160000
0!
0R
0S
#1165000
1!
1R
1S
#1170000
0!
0R
0S
#1175000
1!
1R
1S
#1180000
0!
0R
0S
#1185000
1!
1R
1S
#1190000
0!
0R
0S
#1195000
1!
1R
1S
#1200000
1'
0,
1%
1#
0&
0!
1n
0V
1W
1Y
0[
0R
0S
1p
0}
1r
0\
0N
1~
01
0!!
1s
1!!
#1205000
1!
1R
1S
0]
#1210000
0!
0R
0S
#1215000
1!
1R
1S
#1220000
1*
0!
1U
0R
0S
1c
0!!
1i
0e
#1225000
1!
1R
1S
0"!
1j
0f
0E
1F
0C
1q
02
15
04
#1230000
0!
0R
0S
#1235000
1!
1R
1S
#1240000
1$
1"
0%
0*
0!
1X
1T
0W
0U
0R
0S
1h
0c
1e
1!!
0i
0Z
1i
#1245000
1!
1R
1S
#1250000
0!
0R
0S
#1255000
1!
1R
1S
#1260000
1+
0!
0R
0S
1l
1P
1<
0{
1v
1t
1Q
1;
#1265000
1!
1R
1S
0|
1u
1G
0J
0r
09
16
#1270000
0!
0R
0S
#1275000
1!
1R
1S
#1280000
0#
0$
0"
0+
0!
0Y
0X
0T
0R
0S
0l
0P
0<
0s
0t
0Q
0;
#1285000
1!
1R
1S
#1290000
0!
0R
0S
#1295000
1!
1R
1S
#1300000
1&
0!
1[
0R
0S
0b
1g
1^
1\
0O
1N
1M
1c
1z
0h
1:
11
00
1t
1Q
1;
1{
0i
#1305000
1!
1R
1S
1]
1"!
1|
0u
0j
1f
0d
1_
1K
0D
1E
0F
0G
1J
1C
1b
1r
0q
1h
12
19
06
05
14
03
1.
0^
1Z
0v
0e
1`
1s
1i
#1310000
0!
0R
0S
#1315000
1!
1R
1S
0w
1u
1j
0f
1d
1a
0_
0K
1L
1D
0E
1F
1G
0H
1q
0h
07
16
15
04
13
1/
0.
0x
1v
1e
1^
0i
#1320000
0!
0R
0S
#1325000
1!
1R
1S
0y
1w
0j
1f
1_
1K
1E
0F
1H
0I
0z
0q
1h
08
17
05
14
1.
1x
0`
0^
0{
1i
#1330000
0!
0R
0S
#1335000
1!
1R
1S
0|
1y
1j
0a
0_
0K
0L
1F
1I
0J
0r
1z
1q
0c
09
18
15
0/
0.
0g
1O
0M
0z
0:
10
0s
1{
0t
0Q
0;
0{
#1340000
0!
0R
0S
#1345000
1!
1R
1S
#1350000
0!
0R
0S
#1355000
1!
1R
1S
#1360000
0!
0R
0S
#1365000
1!
1R
1S
#1370000
0!
0R
0S
#1375000
1!
1R
1S
#1380000
0!
0R
0S
#1385000
1!
1R
1S
#1390000
0!
0R
0S
#1395000
1!
1R
1S
#1400000
1(
0'
1%
1#
0&
0!
1o
0n
1W
1Y
0[
0R
0S
0\
0N
01
#1405000
1!
1R
1S
0]
#1410000
0!
0R
0S
#1415000
1!
1R
1S
#1420000
1*
0!
1U
0R
0S
0h
1c
0!!
0e
#1425000
1!
1R
1S
0"!
0f
0E
0C
02
04
#1430000
0!
0R
0S
#1435000
1!
1R
1S
#1440000
1$
1"
0%
0*
0!
1X
1T
0W
0U
0R
0S
1h
0c
1e
1!!
0i
0Z
1i
#1445000
1!
1R
1S
#1450000
0!
0R
0S
#1455000
1!
1R
1S
#1460000
1+
0!
0R
0S
1l
1P
1<
1t
1s
1Q
1;
#1465000
1!
1R
1S
#1470000
0!
0R
0S
#1475000
1!
1R
1S
#1480000
0#
0$
0"
0+
0!
0Y
0X
0T
0R
0S
0l
0P
0<
0s
0t
0Q
0;
#1485000
1!
1R
1S
#1490000
0!
0R
0S
#1495000
1!
1R
1S
#1500000
1&
0!
1[
0R
0S
0b
1g
1^
1\
0O
1N
1M
1c
1z
0h
1:
11
00
1t
1Q
1;
1{
0i
#1505000
1!
1R
1S
1]
1"!
1|
0u
0j
1f
0d
1_
1K
0D
1E
0F
0G
1J
1C
1b
1r
0q
1h
12
19
06
05
14
03
1.
0^
1Z
0v
0e
1`
1s
1i
#1510000
0!
0R
0S
#1515000
1!
1R
1S
0w
1u
1j
0f
1d
1a
0_
0K
1L
1D
0E
1F
1G
0H
1q
0p
0h
07
16
15
04
13
1/
0.
0x
1v
1e
1^
0~
0i
0!!
#1520000
0!
0R
0S
#1525000
1!
1R
1S
0"!
0y
1w
0j
1f
1_
1K
1E
0F
1H
0I
0C
0z
0q
1p
1h
02
08
17
05
14
1.
0Z
1x
0`
0^
1~
0{
1i
1!!
#1530000
0!
0R
0S
#1535000
1!
1R
1S
1"!
0|
1y
1j
0d
0a
0_
0K
0L
0D
1F
1I
0J
1C
0r
1z
1q
0c
12
09
18
15
03
0/
0.
1Z
0e
0g
1O
0M
0z
0:
10
0s
1{
0t
0Q
0;
0{
#1540000
0!
0R
0S
#1545000
1!
1R
1S
#1550000
0!
0R
0S
#1555000
1!
1R
1S
#1560000
0!
0R
0S
#1565000
1!
1R
1S
#1570000
0!
0R
0S
#1575000
1!
1R
1S
#1580000
0!
0R
0S
#1585000
1!
1R
1S
#1590000
0!
0R
0S
#1595000
1!
1R
1S
#1600000
1'
1%
1#
0&
0!
1n
1W
1Y
0[
0R
0S
0\
0N
01
#1605000
1!
1R
1S
0]
#1610000
0!
0R
0S
#1615000
1!
1R
1S
#1620000
1*
0!
1U
0R
0S
0h
1c
0!!
#1625000
1!
1R
1S
0"!
0f
1d
1D
0E
0C
02
04
13
#1630000
0!
0R
0S
#1635000
1!
1R
1S
#1640000
1$
1"
0%
0*
0!
1X
1T
0W
0U
0R
0S
1h
0c
1e
1!!
0i
0Z
1i
#1645000
1!
1R
1S
#1650000
0!
0R
0S
#1655000
1!
1R
1S
#1660000
1+
0!
0R
0S
1l
1P
1<
1t
1s
1Q
1;
#1665000
1!
1R
1S
#1670000
0!
0R
0S
#1675000
1!
1R
1S
#1680000
0#
0$
0"
0+
0!
0Y
0X
0T
0R
0S
0l
0P
0<
0s
0t
0Q
0;
#1685000
1!
1R
1S
#1690000
0!
0R
0S
#1695000
1!
1R
1S
#1700000
1&
0!
1[
0R
0S
0b
1g
1^
1\
0O
1N
1M
1c
1z
0h
1:
11
00
1t
1Q
1;
1{
0i
#1705000
1!
1R
1S
1]
1"!
1|
0u
0j
1f
0d
1_
1K
0D
1E
0F
0G
1J
1C
1b
1r
0q
1h
12
19
06
05
14
03
1.
0^
1Z
0v
0e
1`
1s
1i
#1710000
0!
0R
0S
#1715000
1!
1R
1S
0w
1u
1j
0f
1d
1a
0_
0K
1L
1D
0E
1F
1G
0H
1q
0h
07
16
15
04
13
1/
0.
0x
1v
1e
1^
0i
#1720000
0!
0R
0S
#1725000
1!
1R
1S
0y
1w
0j
1f
1_
1K
1E
0F
1H
0I
0z
0q
1h
08
17
05
14
1.
1x
0`
0^
0{
1i
#1730000
0!
0R
0S
#1735000
1!
1R
1S
0|
1y
1j
0a
0_
0K
0L
1F
1I
0J
0r
1z
1q
0c
09
18
15
0/
0.
0g
1O
0M
0z
0:
10
0s
1{
0t
0Q
0;
0{
#1740000
0!
0R
0S
#1745000
1!
1R
1S
#1750000
0!
0R
0S
#1755000
1!
1R
1S
#1760000
0!
0R
0S
#1765000
1!
1R
1S
#1770000
0!
0R
0S
#1775000
1!
1R
1S
#1780000
0!
0R
0S
#1785000
1!
1R
1S
#1790000
0!
0R
0S
#1795000
1!
1R
1S
#1800000
1)
0(
0'
1%
1#
0&
0!
1m
0o
0n
1W
1Y
0[
0R
0S
0~
0p
0\
0N
1~
01
0!!
1!!
#1805000
1!
1R
1S
0]
#1810000
0!
0R
0S
#1815000
1!
1R
1S
#1820000
1*
0!
1U
0R
0S
0h
1c
0!!
0e
#1825000
1!
1R
1S
0"!
0f
0E
0C
02
04
#1830000
0!
0R
0S
#1835000
1!
1R
1S
#1840000
1$
1"
0%
0*
0!
1X
1T
0W
0U
0R
0S
1h
0c
1e
1!!
0i
0Z
1i
#1845000
1!
1R
1S
#1850000
0!
0R
0S
#1855000
1!
1R
1S
#1860000
1+
0!
0R
0S
1l
1P
1<
1t
1s
1Q
1;
#1865000
1!
1R
1S
#1870000
0!
0R
0S
#1875000
1!
1R
1S
#1880000
0#
0$
0"
0+
0!
0Y
0X
0T
0R
0S
0l
0P
0<
0s
0t
0Q
0;
#1885000
1!
1R
1S
#1890000
0!
0R
0S
#1895000
1!
1R
1S
#1900000
1&
0!
1[
0R
0S
0b
1g
1^
1\
0O
1N
1M
1c
1z
0h
1:
11
00
1t
1Q
1;
1{
0i
#1905000
1!
1R
1S
1]
1"!
1|
0u
0j
1f
0d
1_
1K
0D
1E
0F
0G
1J
1C
1b
1r
0q
1h
12
19
06
05
14
03
1.
0^
1Z
0v
0e
1`
1s
1i
#1910000
0!
0R
0S
#1915000
1!
1R
1S
0w
1u
1j
0f
1d
1a
0_
0K
1L
1D
0E
1F
1G
0H
1q
1p
0h
07
16
15
04
13
1/
0.
0x
1v
1e
1^
0~
0i
0!!
#1920000
0!
0R
0S
#1925000
1!
1R
1S
0"!
0y
1w
0j
1f
1_
1K
1E
0F
1H
0I
0C
0z
0q
0p
1h
02
08
17
05
14
1.
0Z
1x
0`
0^
1~
0{
1i
1!!
#1930000
0!
0R
0S
#1935000
1!
1R
1S
1"!
0|
1y
1j
0d
0a
0_
0K
0L
0D
1F
1I
0J
1C
0r
1z
1q
0c
12
09
18
15
03
0/
0.
1Z
0e
0g
1O
0M
0z
0:
10
0s
1{
0t
0Q
0;
0{
#1940000
0!
0R
0S
#1945000
1!
1R
1S
#1950000
0!
0R
0S
#1955000
1!
1R
1S
#1960000
0!
0R
0S
#1965000
1!
1R
1S
#1970000
0!
0R
0S
#1975000
1!
1R
1S
#1980000
0!
0R
0S
#1985000
1!
1R
1S
#1990000
0!
0R
0S
#1995000
1!
1R
1S
#2000000
1'
1%
1#
0&
0!
1n
1W
1Y
0[
0R
0S
1p
0\
0N
0~
01
0!!
#2005000
1!
1R
1S
0]
#2010000
0!
0R
0S
#2015000
1!
1R
1S
#2020000
1*
0!
1U
0R
0S
0h
1c
#2025000
1!
1R
1S
0"!
0f
1d
1D
0E
0C
02
04
13
#2030000
0!
0R
0S
#2035000
1!
1R
1S
#2040000
1$
1"
0%
0*
0!
1X
1T
0W
0U
0R
0S
1h
0c
1e
0i
0Z
1i
#2045000
1!
1R
1S
#2050000
0!
0R
0S
#2055000
1!
1R
1S
#2060000
1+
0!
0R
0S
1l
1P
1<
1t
1s
1Q
1;
#2065000
1!
1R
1S
#2070000
0!
0R
0S
#2075000
1!
1R
1S
#2080000
0#
0$
0"
0+
0!
0Y
0X
0T
0R
0S
0l
0P
0<
0s
0t
0Q
0;
#2085000
1!
1R
1S
#2090000
0!
0R
0S
#2095000
1!
1R
1S
#2100000
0!
0R
0S
#2105000
1!
1R
1S
#2110000
1&
0!
1[
0R
0S
0b
1g
1^
1\
0O
1N
1M
1c
1z
0h
1:
11
00
1t
1Q
1;
1{
0i
#2115000
1!
1R
1S
1]
1|
0u
0j
1f
0d
1_
1K
0D
1E
0F
0G
1J
1b
1r
0q
1h
19
06
05
14
03
1.
0^
0v
0e
1`
1s
1i
#2120000
0!
0R
0S
#2125000
1!
1R
1S
0w
1u
1j
0f
1a
0_
0K
1L
0E
1F
1G
0H
1q
0h
07
16
15
04
1/
0.
0x
1v
1^
0i
#2130000
0!
0R
0S
#2135000
1!
1R
1S
0y
1w
0j
1_
1K
0F
1H
0I
0z
0q
08
17
05
1.
1x
0`
0^
0{
#2140000
0!
0R
0S
#2145000
1!
1R
1S
0|
1y
0a
0_
0K
0L
1I
0J
0r
0p
1z
0c
09
18
0/
0.
0g
1O
0M
1~
0z
0:
10
0s
1{
0t
0Q
0;
1!!
0{
#2150000
0!
0R
0S
#2155000
1!
1R
1S
#2160000
0!
0R
0S
#2165000
1!
1R
1S
#2170000
0!
0R
0S
#2175000
1!
1R
1S
#2180000
0!
0R
0S
#2185000
1!
1R
1S
#2190000
0!
0R
0S
#2195000
1!
1R
1S
#2200000
1(
0'
1%
1#
0&
0!
1o
0n
1W
1Y
0[
0R
0S
0\
0N
01
#2205000
1!
1R
1S
0]
#2210000
0!
0R
0S
#2215000
1!
1R
1S
#2220000
1*
0!
1U
0R
0S
1c
0!!
1i
1Z
#2225000
1!
1R
1S
1j
1d
1D
1F
1q
1p
15
13
0~
#2230000
0!
0R
0S
#2235000
1!
1R
1S
#2240000
1$
1"
0%
0*
0!
1X
1T
0W
0U
0R
0S
1h
0c
1e
0i
0Z
1i
#2245000
1!
1R
1S
#2250000
0!
0R
0S
#2255000
1!
1R
1S
#2260000
1+
0!
0R
0S
1l
1P
1<
1t
1s
1Q
1;
#2265000
1!
1R
1S
#2270000
0!
0R
0S
#2275000
1!
1R
1S
#2280000
0#
0$
0"
0+
0!
0Y
0X
0T
0R
0S
0l
0P
0<
0s
0t
0Q
0;
#2285000
1!
1R
1S
#2290000
0!
0R
0S
#2295000
1!
1R
1S
#2300000
1&
0!
1[
0R
0S
0b
1g
1^
1\
0O
1N
1M
1c
1z
0h
1:
11
00
1t
1Q
1;
1{
0i
#2305000
1!
1R
1S
1]
1|
0u
0j
1f
0d
1_
1K
0D
1E
0F
0G
1J
1b
1r
0q
1h
19
06
05
14
03
1.
0^
0v
0e
1`
1s
1i
#2310000
0!
0R
0S
#2315000
1!
1R
1S
0w
1u
1j
0f
1a
0_
0K
1L
0E
1F
1G
0H
1q
0p
0h
07
16
15
04
1/
0.
0x
1v
1^
1~
0i
1!!
#2320000
0!
0R
0S
#2325000
1!
1R
1S
1"!
0y
1w
0j
1_
1K
0F
1H
0I
1C
0z
0q
1p
12
08
17
05
1.
1Z
1x
0`
0^
0~
0{
0!!
#2330000
0!
0R
0S
#2335000
1!
1R
1S
0"!
0|
1y
1d
0a
0_
0K
0L
1D
1I
0J
0C
0r
0p
1z
0c
02
09
18
13
0/
0.
0Z
1e
0g
1O
0M
1~
0z
0:
10
0s
1{
0t
0Q
0;
1!!
0{
#2340000
0!
0R
0S
#2345000
1!
1R
1S
#2350000
0!
0R
0S
#2355000
1!
1R
1S
#2360000
0!
0R
0S
#2365000
1!
1R
1S
#2370000
0!
0R
0S
#2375000
1!
1R
1S
#2380000
0!
0R
0S
#2385000
1!
1R
1S
#2390000
0!
0R
0S
