lab/lab3/Lab3/simulation/qsim/Lab3.msim.vcd
$comment
	File created using the following command:
		vcd file Lab3.msim.vcd -direction
$end
$date
	Wed Sep 29 22:39:54 2021
$end
$version
	ModelSim Version 10.5b
$end
$timescale
	1ps
$end

$scope module Lab3_vlg_vec_tst $end
$var reg 1 ! CLK $end
$var reg 1 " D0 $end
$var reg 1 # D1 $end
$var reg 1 $ D2 $end
$var reg 1 % D3 $end
$var reg 1 & EXECUTE $end
$var reg 1 ' F0 $end
$var reg 1 ( F1 $end
$var reg 1 ) F2 $end
$var reg 1 * LOAD_A $end
$var reg 1 + LOAD_B $end
$var reg 1 , R0 $end
$var reg 1 - R1 $end
$var wire 1 . AA0 $end
$var wire 1 / AA1 $end
$var wire 1 0 AA2 $end
$var wire 1 1 AA3 $end
$var wire 1 2 C0p $end
$var wire 1 3 C1p $end
$var wire 1 4 PA0 $end
$var wire 1 5 PA1 $end
$var wire 1 6 PA2 $end
$var wire 1 7 PA3 $end
$var wire 1 8 PB0 $end
$var wire 1 9 PB1 $end
$var wire 1 : PB2 $end
$var wire 1 ; PB3 $end
$var wire 1 < Qp $end
$var wire 1 = RA0 $end
$var wire 1 > RA1 $end
$var wire 1 ? RA2 $end
$var wire 1 @ RA3 $end
$var wire 1 A RB0 $end
$var wire 1 B RB1 $end
$var wire 1 C RB2 $end
$var wire 1 D RB3 $end
$var wire 1 E S $end

$scope module i1 $end
$var wire 1 F gnd $end
$var wire 1 G vcc $end
$var wire 1 H unknown $end
$var tri1 1 I devclrn $end
$var tri1 1 J devpor $end
$var tri1 1 K devoe $end
$var wire 1 L ~QUARTUS_CREATED_GND~I_combout $end
$var wire 1 M CLK~input_o $end
$var wire 1 N CLK~inputCLKENA0_outclk $end
$var wire 1 O EXECUTE~input_o $end
$var wire 1 P LOAD_A~input_o $end
$var wire 1 Q inst67~DUPLICATE_q $end
$var wire 1 R inst63~combout $end
$var wire 1 S inst66~q $end
$var wire 1 T inst61~0_combout $end
$var wire 1 U inst67~feeder_combout $end
$var wire 1 V inst67~q $end
$var wire 1 W inst64~combout $end
$var wire 1 X inst68~q $end
$var wire 1 Y inst79~combout $end
$var wire 1 Z D1~input_o $end
$var wire 1 [ R0~input_o $end
$var wire 1 \ R1~input_o $end
$var wire 1 ] LOAD_B~input_o $end
$var wire 1 ^ D0~input_o $end
$var wire 1 _ F2~input_o $end
$var wire 1 ` F1~input_o $end
$var wire 1 a F0~input_o $end
$var wire 1 b inst3~0_combout $end
$var wire 1 c inst33~combout $end
$var wire 1 d inst54~combout $end
$var wire 1 e inst47|41~q $end
$var wire 1 f inst47|40~q $end
$var wire 1 g inst47|39~q $end
$var wire 1 h inst47|38~q $end
$var wire 1 i inst44|25~0_combout $end
$var wire 1 j inst43~combout $end
$var wire 1 k D2~input_o $end
$var wire 1 l inst44|23~0_combout $end
$var wire 1 m inst50~combout $end
$var wire 1 n D3~input_o $end
$var wire 1 o inst44|22~0_combout $end
$var wire 1 p inst26|37~0_combout $end
$var wire 1 q inst26|41~q $end
$var wire 1 r inst26|36~0_combout $end
$var wire 1 s inst26|40~q $end
$var wire 1 t inst44|24~0_combout $end
$var wire 1 u inst26|35~0_combout $end
$var wire 1 v inst26|39~q $end
$var wire 1 w inst26|34~0_combout $end
$var wire 1 x inst75~combout $end
$var wire 1 y inst26|34~1_combout $end
$var wire 1 z inst26|38~q $end
$var wire 1 { inst32~combout $end
$var wire 1 | inst46|41~q $end
$var wire 1 } inst46|40~q $end
$var wire 1 ~ inst46|39~q $end
$var wire 1 !! inst49|24~0_combout $end
$var wire 1 "! inst77~combout $end
$var wire 1 #! inst49|23~0_combout $end
$var wire 1 $! inst49|22~0_combout $end
$var wire 1 %! inst4|37~0_combout $end
$var wire 1 &! inst4|41~q $end
$var wire 1 '! inst4|36~0_combout $end
$var wire 1 (! inst4|40~q $end
$var wire 1 )! inst4|35~0_combout $end
$var wire 1 *! inst4|39~q $end
$var wire 1 +! inst4|34~0_combout $end
$var wire 1 ,! inst46|38~q $end
$var wire 1 -! inst49|25~0_combout $end
$var wire 1 .! inst4|34~1_combout $end
$var wire 1 /! inst4|38~q $end
$upscope $end
$upscope $end
$enddefinitions $end
#0
$dumpvars
0!
0"
0#
0$
0%
0&
0'
0(
0)
0*
0+
0,
0-
0.
0/
00
01
02
03
04
05
06
07
08
09
0:
0;
0<
0=
0>
0?
0@
0A
0B
0C
0D
0E
0F
1G
xH
1I
1J
1K
0L
0M
0N
0O
0P
0Q
0R
0S
0T
0U
0V
0W
0X
0Y
0Z
0[
0\
0]
0^
0_
0`
0a
0b
0c
0d
0e
0f
0g
0h
0i
1j
0k
0l
0m
0n
0o
0p
0q
0r
0s
0t
0u
0v
0w
0x
0y
0z
0{
0|
0}
0~
0!!
1"!
0#!
0$!
0%!
0&!
0'!
0(!
0)!
0*!
0+!
0,!
0-!
0.!
0/!
$end
#5000
1!
1M
1N
#10000
1#
1"
0!
1Z
1^
0M
0N
#15000
1!
1M
1N
#20000
0!
0M
0N
#25000
1!
1M
1N
#30000
1*
0!
1P
0M
0N
1+!
0"!
1Y
1-!
1!!
15
14
1)!
1.!
#35000
1!
1M
1N
1/!
1*!
1>
1=
1{
#40000
0!
0M
0N
#45000
1!
1M
1N
#50000
0#
0"
0*
0!
0Z
0^
0P
0M
0N
1"!
0Y
0-!
0!!
05
04
#55000
1!
1M
1N
#60000
0!
0M
0N
#65000
1!
1M
1N
#70000
1%
1$
0!
1n
1k
0M
0N
#75000
1!
1M
1N
#80000
0!
0M
0N
#85000
1!
1M
1N
#90000
1*
0!
1P
0M
0N
0+!
0"!
1Y
1$!
1#!
16
17
0)!
1'!
1%!
0.!
#95000
1!
1M
1N
0/!
0*!
1(!
1&!
1@
1?
0>
0=
0{
#100000
0!
0M
0N
#105000
1!
1M
1N
#110000
0%
0$
0*
0!
0n
0k
0P
0M
0N
1"!
0Y
0$!
0#!
06
07
#115000
1!
1M
1N
#120000
0!
0M
0N
#125000
1!
1M
1N
#130000
0!
0M
0N
#135000
1!
1M
1N
#140000
0!
0M
0N
#145000
1!
1M
1N
#150000
1*
0!
1P
0M
0N
0"!
1Y
0'!
0%!
#155000
1!
1M
1N
0(!
0&!
0@
0?
#160000
0!
0M
0N
#165000
1!
1M
1N
#170000
0*
0!
0P
0M
0N
1"!
0Y
#175000
1!
1M
1N
#180000
0!
0M
0N
#185000
1!
1M
1N
#190000
1#
1"
0!
1Z
1^
0M
0N
#195000
1!
1M
1N
#200000
0!
0M
0N
#205000
1!
1M
1N
#210000
1+
0!
1]
0M
0N
1w
1m
0j
1t
1i
18
19
1u
1y
#215000
1!
1M
1N
1z
1v
1B
1A
1c
#220000
0!
0M
0N
#225000
1!
1M
1N
#230000
0#
0"
0+
0!
0Z
0^
0]
0M
0N
0m
1j
0t
0i
08
09
#235000
1!
1M
1N
#240000
0!
0M
0N
#245000
1!
1M
1N
#250000
1%
1$
0!
1n
1k
0M
0N
#255000
1!
1M
1N
#260000
0!
0M
0N
#265000
1!
1M
1N
#270000
1+
0!
1]
0M
0N
0w
1m
0j
1o
1l
1:
1;
0u
1r
1p
0y
#275000
1!
1M
1N
0z
0v
1s
1q
1D
1C
0B
0A
0c
#280000
0!
0M
0N
#285000
1!
1M
1N
#290000
0%
0$
0+
0!
0n
0k
0]
0M
0N
0m
1j
0o
0l
0:
0;
#295000
1!
1M
1N
#300000
0!
0M
0N
#305000
1!
1M
1N
#310000
0!
0M
0N
#315000
1!
1M
1N
#320000
0!
0M
0N
#325000
1!
1M
1N
#330000
1+
0!
1]
0M
0N
1m
0j
0r
0p
#335000
1!
1M
1N
0s
0q
0D
0C
#340000
0!
0M
0N
#345000
1!
1M
1N
#350000
0+
0!
0]
0M
0N
0m
1j
#355000
1!
1M
1N
#360000
0!
0M
0N
#365000
1!
1M
1N
#370000
0!
0M
0N
#375000
1!
1M
1N
#380000
0!
0M
0N
#385000
1!
1M
1N
#390000
0!
0M
0N
#395000
1!
1M
1N
#400000
1#
1%
1$
0!
1Z
1n
1k
0M
0N
#405000
1!
1M
1N
#410000
0!
0M
0N
#415000
1!
1M
1N
#420000
1*
0!
1P
0M
0N
0"!
1Y
1$!
1#!
1!!
15
16
17
1)!
1'!
1%!
#425000
1!
1M
1N
1*!
1(!
1&!
1@
1?
1>
#430000
0!
0M
0N
#435000
1!
1M
1N
#440000
1"
0%
0*
0!
1^
0n
0P
0M
0N
1"!
0Y
0$!
0#!
0!!
05
06
07
#445000
1!
1M
1N
#450000
0!
0M
0N
#455000
1!
1M
1N
#460000
1+
0!
1]
0M
0N
1w
1m
0j
1t
1l
1i
18
1:
19
1u
1r
1y
#465000
1!
1M
1N
1z
1v
1s
1C
1B
1A
1c
#470000
0!
0M
0N
#475000
1!
1M
1N
#480000
0#
0$
0"
0+
0!
0Z
0k
0^
0]
0M
0N
0m
1j
0t
0l
0i
08
0:
09
#485000
1!
1M
1N
#490000
0!
0M
0N
#495000
1!
1M
1N
#500000
1&
0!
1O
0M
0N
0"!
0j
1d
1W
1R
12
1<
1E
0r
1p
0%!
1.!
#505000
1!
1M
1N
1e
1X
1S
1/!
0&!
0s
1q
1D
0C
0@
1=
1+!
1b
1T
0R
1o
1r
0u
0'!
1%!
1{
1;
02
13
1U
#510000
0!
0M
0N
#515000
1!
1M
1N
1f
1V
0S
1Q
0(!
1&!
1|
0v
1s
1C
0B
11
1@
0?
1R
1l
1u
0y
1$!
1'!
0)!
17
1:
12
#520000
0!
0M
0N
#525000
1!
1M
1N
1g
1S
0*!
1(!
1}
0z
1v
1B
0A
10
1?
0>
0w
0b
0T
0R
1t
1y
0p
0c
1#!
1)!
0.!
16
19
02
03
0U
#530000
0!
0M
0N
#535000
1!
1M
1N
1h
0e
0V
0S
0Q
0/!
1*!
1~
1z
0q
0D
1A
1/
1>
0=
1m
1Y
1x
1w
0+!
0d
0o
1i
0r
1p
0{
1c
1!!
1.!
0%!
15
18
0;
0E
0.!
1%!
1r
0p
#540000
0!
0M
0N
#545000
1!
1M
1N
#550000
0!
0M
0N
#555000
1!
1M
1N
#560000
0!
0M
0N
#565000
1!
1M
1N
#570000
0!
0M
0N
#575000
1!
1M
1N
#580000
0!
0M
0N
#585000
1!
1M
1N
#590000
0!
0M
0N
#595000
1!
1M
1N
#600000
1,
1%
1#
1$
0&
0!
1[
1n
1Z
1k
0O
0M
0N
1"!
0x
0m
1j
0Y
0W
0c
0<
#605000
1!
1M
1N
0X
#610000
0!
0M
0N
#615000
1!
1M
1N
#620000
1*
0!
1P
0M
0N
0"!
1Y
#625000
1!
1M
1N
#630000
0!
0M
0N
#635000
1!
1M
1N
#640000
1"
0%
0*
0!
1^
0n
0P
0M
0N
1"!
0Y
#645000
1!
1M
1N
#650000
0!
0M
0N
#655000
1!
1M
1N
#660000
1+
0!
1]
0M
0N
1m
0j
#665000
1!
1M
1N
#670000
0!
0M
0N
#675000
1!
1M
1N
#680000
0#
0$
0"
0+
0!
0Z
0k
0^
0]
0M
0N
0m
1j
#685000
1!
1M
1N
#690000
0!
0M
0N
#695000
1!
1M
1N
#700000
1&
0!
1O
0M
0N
0"!
0j
1d
1W
1R
12
1<
1E
0r
1p
0%!
1.!
#705000
1!
1M
1N
0f
1X
1S
1/!
1,!
0&!
0|
0s
1q
1D
0C
01
0@
1.
1=
1+!
1b
1T
0R
0l
1r
0u
0$!
0'!
1%!
1-!
1{
14
07
0:
02
13
1c
1U
#710000
0!
0M
0N
#715000
1!
1M
1N
0g
1e
1V
0S
1Q
0(!
1&!
0}
1|
0v
1s
1C
0B
11
00
1@
0?
1R
1o
0t
1u
0y
1$!
0#!
1'!
0)!
06
17
09
1;
12
#720000
0!
0M
0N
#725000
1!
1M
1N
0h
1f
1S
0*!
1(!
0~
1}
0z
1v
1B
0A
10
0/
1?
0>
0w
0b
0T
0R
1l
0i
1y
0p
1#!
0!!
1)!
0.!
05
16
08
1:
02
03
0c
0U
#730000
0!
0M
0N
#735000
1!
1M
1N
1g
0e
0V
0S
0Q
0/!
0,!
1*!
1~
1z
0q
0D
1A
1/
1>
0.
0=
1m
1Y
1x
1w
0+!
0d
0o
1t
0r
1p
0{
1!!
1.!
0-!
0%!
04
15
19
0;
0E
0.!
0y
1%!
1r
0p
#740000
0!
0M
0N
#745000
1!
1M
1N
0z
0A
0w
#750000
0!
0M
0N
#755000
1!
1M
1N
#760000
0!
0M
0N
#765000
1!
1M
1N
#770000
0!
0M
0N
#775000
1!
1M
1N
#780000
0!
0M
0N
#785000
1!
1M
1N
#790000
0!
0M
0N
#795000
1!
1M
1N
#800000
1-
0,
1%
1#
1$
0&
0!
1\
0[
1n
1Z
1k
0O
0M
0N
1"!
0x
0m
1j
0Y
0W
0<
#805000
1!
1M
1N
0X
#810000
0!
0M
0N
#815000
1!
1M
1N
#820000
1*
0!
1P
0M
0N
0"!
1Y
#825000
1!
1M
1N
#830000
0!
0M
0N
#835000
1!
1M
1N
#840000
1"
0%
0*
0!
1^
0n
0P
0M
0N
1"!
0Y
#845000
1!
1M
1N
#850000
0!
0M
0N
#855000
1!
1M
1N
#860000
1+
0!
1]
0M
0N
1w
1m
0j
1i
18
1y
#865000
1!
1M
1N
1z
1A
1c
#870000
0!
0M
0N
#875000
1!
1M
1N
#880000
0#
0$
0"
0+
0!
0Z
0k
0^
0]
0M
0N
0m
1j
0i
08
#885000
1!
1M
1N
#890000
0!
0M
0N
#895000
1!
1M
1N
#900000
1&
0!
1O
0M
0N
0"!
0j
1d
1W
1R
12
1<
1E
0r
1p
0%!
1.!
#905000
1!
1M
1N
1h
0f
1e
1X
1S
1/!
1,!
0&!
0|
0s
1q
1D
0C
01
0@
1.
1=
1+!
1b
1T
0R
1o
0l
1i
1r
0u
0$!
0'!
1%!
1-!
14
07
18
0:
1;
02
13
1{
1U
#910000
0!
0M
0N
#915000
1!
1M
1N
0g
1f
1V
0S
1Q
0(!
1&!
0}
1|
0v
1s
1C
0B
11
00
1@
0?
1R
1l
0t
1u
0y
1$!
0#!
1'!
0)!
06
17
09
1:
12
#920000
0!
0M
0N
#925000
1!
1M
1N
0h
1g
1S
0*!
1(!
0~
1}
0z
1v
1B
0A
10
0/
1?
0>
0w
0b
0T
0R
1t
0i
1y
0p
0c
1#!
0!!
1)!
0.!
05
16
08
19
02
03
0{
0U
#930000
0!
0M
0N
#935000
1!
1M
1N
1h
0e
0V
0S
0Q
0/!
0,!
1*!
1~
0|
1z
0q
0D
1A
01
1/
1>
0.
0=
1m
1Y
1x
1w
0+!
0d
0o
1i
0r
1p
1c
0$!
1!!
1.!
0-!
0%!
04
15
07
18
0;
0E
0.!
1r
0p
#940000
0!
0M
0N
#945000
1!
1M
1N
0&!
0@
#950000
0!
0M
0N
#955000
1!
1M
1N
#960000
0!
0M
0N
#965000
1!
1M
1N
#970000
0!
0M
0N
#975000
1!
1M
1N
#980000
0!
0M
0N
#985000
1!
1M
1N
#990000
0!
0M
0N
#995000
1!
1M
1N
#1000000
1,
1%
1#
1$
0&
0!
1[
1n
1Z
1k
0O
0M
0N
1"!
0x
0m
1j
0Y
0W
1{
0c
0<
#1005000
1!
1M
1N
0X
#1010000
0!
0M
0N
#1015000
1!
1M
1N
#1020000
1*
0!
1P
0M
0N
0"!
1Y
1$!
17
1%!
#1025000
1!
1M
1N
1&!
1@
#1030000
0!
0M
0N
#1035000
1!
1M
1N
#1040000
1"
0%
0*
0!
1^
0n
0P
0M
0N
1"!
0Y
0$!
07
#1045000
1!
1M
1N
#1050000
0!
0M
0N
#1055000
1!
1M
1N
#1060000
1+
0!
1]
0M
0N
1m
0j
#1065000
1!
1M
1N
#1070000
0!
0M
0N
#1075000
1!
1M
1N
#1080000
0#
0$
0"
0+
0!
0Z
0k
0^
0]
0M
0N
0m
1j
#1085000
1!
1M
1N
#1090000
0!
0M
0N
#1095000
1!
1M
1N
#1100000
1&
0!
1O
0M
0N
0"!
0j
1d
1W
1R
12
1<
1E
0r
1p
0%!
1.!
#1105000
1!
1M
1N
0f
1X
1S
1/!
1,!
0&!
0}
1|
0s
1q
1D
0C
11
00
0@
1.
1=
1+!
1b
1T
0R
0l
1r
0u
1$!
0#!
0'!
1%!
1-!
1c
14
06
17
0:
02
13
1U
#1110000
0!
0M
0N
#1115000
1!
1M
1N
0g
1e
1V
0S
1Q
0(!
1&!
0~
1}
0v
1s
1C
0B
10
0/
1@
0?
1R
1o
0t
1u
0y
1#!
0!!
1'!
0)!
05
16
09
1;
12
#1120000
0!
0M
0N
#1125000
1!
1M
1N
0h
1f
1S
0,!
0*!
1(!
1~
0z
1v
1B
0A
1/
1?
0>
0.
0w
0b
0T
0R
1l
0i
1y
0{
0p
1!!
1)!
0.!
0-!
04
15
08
1:
02
03
0U
#1130000
0!
0M
0N
#1135000
1!
1M
1N
1g
0V
0S
0Q
0/!
1,!
1*!
0|
1z
0q
0D
1A
01
1>
1.
0=
1m
1Y
1x
1w
0+!
0d
1t
0r
1p
1{
0c
0$!
1.!
1-!
0%!
14
07
19
0E
0y
1r
#1140000
0!
0M
0N
#1145000
1!
1M
1N
1/!
0&!
0z
1q
1D
0A
0@
1=
0w
1+!
0{
1c
#1150000
0!
0M
0N
#1155000
1!
1M
1N
#1160000
0!
0M
0N
#1165000
1!
1M
1N
#1170000
0!
0M
0N
#1175000
1!
1M
1N
#1180000
0!
0M
0N
#1185000
1!
1M
1N
#1190000
0!
0M
0N
#1195000
1!
1M
1N
#1200000
1'
0,
1%
1#
0&
0!
1a
0[
1n
1Z
0O
0M
0N
1"!
0x
0m
1j
0Y
1b
0W
0c
0<
1{
#1205000
1!
1M
1N
0X
#1210000
0!
0M
0N
#1215000
1!
1M
1N
#1220000
1*
0!
1P
0M
0N
0+!
0"!
1Y
0-!
1$!
0#!
06
17
04
0'!
1%!
0.!
#1225000
1!
1M
1N
0/!
0(!
1&!
1@
0?
0=
0b
0{
#1230000
0!
0M
0N
#1235000
1!
1M
1N
#1240000
1$
1"
0%
0*
0!
1k
1^
0n
0P
0M
0N
1"!
0Y
1-!
0$!
1#!
16
07
14
#1245000
1!
1M
1N
#1250000
0!
0M
0N
#1255000
1!
1M
1N
#1260000
1+
0!
1]
0M
0N
1w
1m
0j
0o
1i
18
0;
0p
1y
#1265000
1!
1M
1N
1z
0q
0D
1A
1b
1c
1{
#1270000
0!
0M
0N
#1275000
1!
1M
1N
#1280000
0#
0$
0"
0+
0!
0Z
0k
0^
0]
0M
0N
0m
1j
1o
0i
08
1;
#1285000
1!
1M
1N
#1290000
0!
0M
0N
#1295000
1!
1M
1N
#1300000
1&
0!
1O
0M
0N
0"!
0j
1d
1W
1R
12
1<
1E
0r
1p
0)!
1'!
0%!
1.!
#1305000
1!
1M
1N
1h
1X
1S
1/!
0*!
1(!
0&!
0}
1|
0s
1q
1D
0C
11
00
0@
1?
0>
1=
1+!
1T
0R
1i
1r
0u
1$!
0#!
0'!
1%!
1)!
0.!
06
17
18
02
13
1U
#1310000
0!
0M
0N
#1315000
1!
1M
1N
1V
0S
1Q
0/!
1*!
0(!
1&!
0~
1}
0v
1s
1C
0B
10
0/
1@
0?
1>
0=
0+!
1R
1u
0y
1#!
0!!
1'!
0%!
0)!
1.!
05
16
12
#1320000
0!
0M
0N
#1325000
1!
1M
1N
1S
1/!
0,!
0*!
1(!
0&!
1~
0z
1v
1B
0A
1/
0@
1?
0>
0.
1=
0w
1+!
0T
0R
1y
0p
0c
1!!
0'!
1%!
1)!
0.!
0-!
04
15
02
03
0U
#1330000
0!
0M
0N
#1335000
1!
1M
1N
0e
0V
0S
0Q
0/!
1,!
1*!
0(!
1&!
1z
0q
0D
1A
1@
0?
1>
1.
0=
1m
1Y
1x
1w
0+!
0d
0o
0r
1p
1c
1'!
0%!
0)!
1.!
1-!
14
0;
0E
1)!
1%!
1r
0p
#1340000
0!
0M
0N
#1345000
1!
1M
1N
1/!
1(!
1?
1=
1+!
#1350000
0!
0M
0N
#1355000
1!
1M
1N
#1360000
0!
0M
0N
#1365000
1!
1M
1N
#1370000
0!
0M
0N
#1375000
1!
1M
1N
#1380000
0!
0M
0N
#1385000
1!
1M
1N
#1390000
0!
0M
0N
#1395000
1!
1M
1N
#1400000
1(
0'
1%
1#
0&
0!
1`
0a
1n
1Z
0O
0M
0N
1"!
0x
0m
1j
0Y
0b
0W
0<
0{
#1405000
1!
1M
1N
0X
#1410000
0!
0M
0N
#1415000
1!
1M
1N
#1420000
1*
0!
1P
0M
0N
0+!
0"!
1Y
0-!
0#!
06
04
0'!
0.!
#1425000
1!
1M
1N
0/!
0(!
0?
0=
1b
1{
#1430000
0!
0M
0N
#1435000
1!
1M
1N
#1440000
1$
1"
0%
0*
0!
1k
1^
0n
0P
0M
0N
1"!
0Y
1-!
1#!
16
14
#1445000
1!
1M
1N
#1450000
0!
0M
0N
#1455000
1!
1M
1N
#1460000
1+
0!
1]
0M
0N
1m
0j
#1465000
1!
1M
1N
#1470000
0!
0M
0N
#1475000
1!
1M
1N
#1480000
0#
0$
0"
0+
0!
0Z
0k
0^
0]
0M
0N
0m
1j
#1485000
1!
1M
1N
#1490000
0!
0M
0N
#1495000
1!
1M
1N
#1500000
1&
0!
1O
0M
0N
0"!
0j
1d
1W
1R
12
1<
1E
0r
1p
0)!
1'!
0%!
1.!
#1505000
1!
1M
1N
0f
1e
1X
1S
1/!
0*!
1(!
0&!
0s
1q
1D
0C
0@
1?
0>
1=
1+!
0b
1T
0R
1o
0l
1r
0u
0'!
1%!
1)!
0.!
0:
1;
02
13
0{
1U
#1510000
0!
0M
0N
#1515000
1!
1M
1N
0g
1f
1V
0S
1Q
0/!
1*!
0(!
1&!
0|
0v
1s
1C
0B
01
1@
0?
1>
0=
0+!
1b
1R
1l
0t
1u
0y
0$!
1'!
0%!
0)!
1.!
07
09
1:
12
1{
#1520000
0!
0M
0N
#1525000
1!
1M
1N
0h
1g
1S
1/!
0*!
1(!
0&!
0}
1|
0z
1v
1B
0A
11
00
0@
1?
0>
1=
0w
1+!
0T
0R
1t
0i
1y
0p
0c
1$!
0#!
0'!
1%!
1)!
0.!
06
17
08
19
02
03
0U
#1530000
0!
0M
0N
#1535000
1!
1M
1N
1h
0e
0V
0S
0Q
0/!
1*!
0(!
1&!
0~
1}
1z
0q
0D
1A
10
0/
1@
0?
1>
0=
1m
1Y
1x
1w
0+!
0d
0o
1i
0r
1p
1c
1#!
0!!
1'!
0%!
0)!
1.!
05
16
18
0;
0E
1%!
1r
0p
#1540000
0!
0M
0N
#1545000
1!
1M
1N
1/!
0*!
1(!
1?
0>
1=
1+!
0b
0{
#1550000
0!
0M
0N
#1555000
1!
1M
1N
#1560000
0!
0M
0N
#1565000
1!
1M
1N
#1570000
0!
0M
0N
#1575000
1!
1M
1N
#1580000
0!
0M
0N
#1585000
1!
1M
1N
#1590000
0!
0M
0N
#1595000
1!
1M
1N
#1600000
1'
1%
1#
0&
0!
1a
1n
1Z
0O
0M
0N
1"!
0x
0m
1j
0Y
1b
0W
0<
1{
#1605000
1!
1M
1N
0X
#1610000
0!
0M
0N
#1615000
1!
1M
1N
#1620000
1*
0!
1P
0M
0N
0+!
0"!
1Y
0-!
0#!
1!!
15
06
04
1)!
0'!
0.!
#1625000
1!
1M
1N
0/!
1*!
0(!
0?
1>
0=
#1630000
0!
0M
0N
#1635000
1!
1M
1N
#1640000
1$
1"
0%
0*
0!
1k
1^
0n
0P
0M
0N
1"!
0Y
1-!
1#!
0!!
05
16
14
#1645000
1!
1M
1N
#1650000
0!
0M
0N
#1655000
1!
1M
1N
#1660000
1+
0!
1]
0M
0N
1m
0j
#1665000
1!
1M
1N
#1670000
0!
0M
0N
#1675000
1!
1M
1N
#1680000
0#
0$
0"
0+
0!
0Z
0k
0^
0]
0M
0N
0m
1j
#1685000
1!
1M
1N
#1690000
0!
0M
0N
#1695000
1!
1M
1N
#1700000
1&
0!
1O
0M
0N
0"!
0j
1d
1W
1R
12
1<
1E
0r
1p
0)!
1'!
0%!
1.!
#1705000
1!
1M
1N
0f
1e
1X
1S
1/!
0,!
0*!
1(!
0&!
1~
0s
1q
1D
0C
1/
0@
1?
0>
0.
1=
1+!
1T
0R
1o
0l
1r
0u
1!!
0'!
1%!
1)!
0.!
0-!
04
15
0:
1;
02
13
1U
#1710000
0!
0M
0N
#1715000
1!
1M
1N
0g
1f
1V
0S
1Q
0/!
1,!
1*!
0(!
1&!
0v
1s
1C
0B
1@
0?
1>
1.
0=
0+!
1R
1l
0t
1u
0y
1'!
0%!
0)!
1.!
1-!
14
09
1:
12
#1720000
0!
0M
0N
#1725000
1!
1M
1N
0h
1g
1S
1/!
0*!
1(!
0&!
0z
1v
1B
0A
0@
1?
0>
1=
0w
1+!
0T
0R
1t
0i
1y
0p
0c
0'!
1%!
1)!
0.!
08
19
02
03
0U
#1730000
0!
0M
0N
#1735000
1!
1M
1N
1h
0e
0V
0S
0Q
0/!
1*!
0(!
1&!
1z
0q
0D
1A
1@
0?
1>
0=
1m
1Y
1x
1w
0+!
0d
0o
1i
0r
1p
1c
1'!
0%!
0)!
1.!
18
0;
0E
1)!
1%!
1r
0p
#1740000
0!
0M
0N
#1745000
1!
1M
1N
1/!
1(!
1?
1=
1+!
#1750000
0!
0M
0N
#1755000
1!
1M
1N
#1760000
0!
0M
0N
#1765000
1!
1M
1N
#1770000
0!
0M
0N
#1775000
1!
1M
1N
#1780000
0!
0M
0N
#1785000
1!
1M
1N
#1790000
0!
0M
0N
#1795000
1!
1M
1N
#1800000
1)
0(
0'
1%
1#
0&
0!
1_
0`
0a
1n
1Z
0O
0M
0N
1"!
0x
0m
1j
0Y
0b
0W
0<
0{
#1805000
1!
1M
1N
0X
#1810000
0!
0M
0N
#1815000
1!
1M
1N
#1820000
1*
0!
1P
0M
0N
0+!
0"!
1Y
0-!
0#!
06
04
0'!
0.!
#1825000
1!
1M
1N
0/!
0(!
0?
0=
1b
1{
#1830000
0!
0M
0N
#1835000
1!
1M
1N
#1840000
1$
1"
0%
0*
0!
1k
1^
0n
0P
0M
0N
1"!
0Y
1-!
1#!
16
14
#1845000
1!
1M
1N
#1850000
0!
0M
0N
#1855000
1!
1M
1N
#1860000
1+
0!
1]
0M
0N
1m
0j
#1865000
1!
1M
1N
#1870000
0!
0M
0N
#1875000
1!
1M
1N
#1880000
0#
0$
0"
0+
0!
0Z
0k
0^
0]
0M
0N
0m
1j
#1885000
1!
1M
1N
#1890000
0!
0M
0N
#1895000
1!
1M
1N
#1900000
1&
0!
1O
0M
0N
0"!
0j
1d
1W
1R
12
1<
1E
0r
1p
0)!
1'!
0%!
1.!
#1905000
1!
1M
1N
0f
1e
1X
1S
1/!
0*!
1(!
0&!
0s
1q
1D
0C
0@
1?
0>
1=
1+!
0b
1T
0R
1o
0l
1r
0u
0'!
1%!
1)!
0.!
0:
1;
02
13
0{
1U
#1910000
0!
0M
0N
#1915000
1!
1M
1N
0g
1f
1V
0S
1Q
0/!
1*!
0(!
1&!
0|
0v
1s
1C
0B
01
1@
0?
1>
0=
0+!
1b
1R
1l
0t
1u
0y
0$!
1'!
0%!
0)!
1.!
07
09
1:
12
1{
#1920000
0!
0M
0N
#1925000
1!
1M
1N
0h
1g
1S
1/!
0*!
1(!
0&!
0}
1|
0z
1v
1B
0A
11
00
0@
1?
0>
1=
0w
1+!
0T
0R
1t
0i
1y
0p
0c
1$!
0#!
0'!
1%!
1)!
0.!
06
17
08
19
02
03
0U
#1930000
0!
0M
0N
#1935000
1!
1M
1N
1h
0e
0V
0S
0Q
0/!
1*!
0(!
1&!
0~
1}
1z
0q
0D
1A
10
0/
1@
0?
1>
0=
1m
1Y
1x
1w
0+!
0d
0o
1i
0r
1p
1c
1#!
0!!
1'!
0%!
0)!
1.!
05
16
18
0;
0E
1%!
1r
0p
#1940000
0!
0M
0N
#1945000
1!
1M
1N
1/!
0*!
1(!
1?
0>
1=
1+!
0b
0{
#1950000
0!
0M
0N
#1955000
1!
1M
1N
#1960000
0!
0M
0N
#1965000
1!
1M
1N
#1970000
0!
0M
0N
#1975000
1!
1M
1N
#1980000
0!
0M
0N
#1985000
1!
1M
1N
#1990000
0!
0M
0N
#1995000
1!
1M
1N
#2000000
1'
1%
1#
0&
0!
1a
1n
1Z
0O
0M
0N
1"!
0x
0m
1j
0Y
0W
0<
#2005000
1!
1M
1N
0X
#2010000
0!
0M
0N
#2015000
1!
1M
1N
#2020000
1*
0!
1P
0M
0N
0+!
0"!
1Y
0-!
0#!
1!!
15
06
04
1)!
0'!
0.!
#2025000
1!
1M
1N
0/!
1*!
0(!
0?
1>
0=
#2030000
0!
0M
0N
#2035000
1!
1M
1N
#2040000
1$
1"
0%
0*
0!
1k
1^
0n
0P
0M
0N
1"!
0Y
1-!
1#!
0!!
05
16
14
#2045000
1!
1M
1N
#2050000
0!
0M
0N
#2055000
1!
1M
1N
#2060000
1+
0!
1]
0M
0N
1m
0j
#2065000
1!
1M
1N
#2070000
0!
0M
0N
#2075000
1!
1M
1N
#2080000
0#
0$
0"
0+
0!
0Z
0k
0^
0]
0M
0N
0m
1j
#2085000
1!
1M
1N
#2090000
0!
0M
0N
#2095000
1!
1M
1N
#2100000
0!
0M
0N
#2105000
1!
1M
1N
#2110000
1&
0!
1O
0M
0N
0"!
0j
1d
1W
1R
12
1<
1E
0r
1p
0)!
1'!
0%!
1.!
#2115000
1!
1M
1N
0f
1e
1X
1S
1/!
0,!
0*!
1(!
0&!
1~
0|
0s
1q
1D
0C
01
1/
0@
1?
0>
0.
1=
1+!
1T
0R
1o
0l
1r
0u
0$!
1!!
0'!
1%!
1)!
0.!
0-!
04
15
07
0:
1;
02
13
1U
#2120000
0!
0M
0N
