lab/lab2/Lab2test/simulation/qsim/Lab2.msim.vcd
$comment
	File created using the following command:
		vcd file Lab2.msim.vcd -direction
$end
$date
	Thu Sep 23 09:48:22 2021
$end
$version
	ModelSim Version 10.5b
$end
$timescale
	1ps
$end

$scope module Lab2_vlg_vec_tst $end
$var reg 1 ! CLOCK $end
$var reg 1 " DIN0 $end
$var reg 1 # DIN1 $end
$var reg 1 $ FETCH $end
$var reg 1 % LDSBR $end
$var reg 1 & SAR0 $end
$var reg 1 ' SAR1 $end
$var reg 1 ( STORE $end
$var wire 1 ) comparsion $end
$var wire 1 * d0 $end
$var wire 1 + d1 $end
$var wire 1 , Q00 $end
$var wire 1 - Q01 $end
$var wire 1 . Q02 $end
$var wire 1 / Q03 $end
$var wire 1 0 Q10 $end
$var wire 1 1 Q11 $end
$var wire 1 2 Q12 $end
$var wire 1 3 Q13 $end
$var wire 1 4 QB $end
$var wire 1 5 QC $end
$var wire 1 6 s0 $end
$var wire 1 7 s1 $end
$var wire 1 8 SBR0 $end
$var wire 1 9 SBR1 $end
$var wire 1 : select $end
$var wire 1 ; y1 $end
$var wire 1 < y2 $end

$scope module i1 $end
$var wire 1 = gnd $end
$var wire 1 > vcc $end
$var wire 1 ? unknown $end
$var tri1 1 @ devclrn $end
$var tri1 1 A devpor $end
$var tri1 1 B devoe $end
$var wire 1 C SBR1~output_o $end
$var wire 1 D d1~output_o $end
$var wire 1 E d0~output_o $end
$var wire 1 F select~output_o $end
$var wire 1 G s1~output_o $end
$var wire 1 H s0~output_o $end
$var wire 1 I SBR0~output_o $end
$var wire 1 J Q00~output_o $end
$var wire 1 K Q01~output_o $end
$var wire 1 L Q02~output_o $end
$var wire 1 M Q10~output_o $end
$var wire 1 N Q11~output_o $end
$var wire 1 O Q13~output_o $end
$var wire 1 P Q03~output_o $end
$var wire 1 Q Q12~output_o $end
$var wire 1 R QB~output_o $end
$var wire 1 S QC~output_o $end
$var wire 1 T comparsion~output_o $end
$var wire 1 U y1~output_o $end
$var wire 1 V y2~output_o $end
$var wire 1 W CLOCK~input_o $end
$var wire 1 X CLOCK~inputclkctrl_outclk $end
$var wire 1 Y STORE~input_o $end
$var wire 1 Z LDSBR~input_o $end
$var wire 1 [ FETCH~input_o $end
$var wire 1 \ inst29|4~0_combout $end
$var wire 1 ] DIN1~input_o $end
$var wire 1 ^ inst5|10~0_combout $end
$var wire 1 _ SAR1~input_o $end
$var wire 1 ` SAR0~input_o $end
$var wire 1 a Counter|15~0_combout $end
$var wire 1 b Counter|15~q $end
$var wire 1 c Counter|14~0_combout $end
$var wire 1 d Counter|14~q $end
$var wire 1 e inst15|sub|110~combout $end
$var wire 1 f inst20|4~combout $end
$var wire 1 g inst10|23~0_combout $end
$var wire 1 h register_2|41~q $end
$var wire 1 i register_2|40~feeder_combout $end
$var wire 1 j register_2|40~q $end
$var wire 1 k register_2|39~feeder_combout $end
$var wire 1 l register_2|39~q $end
$var wire 1 m register_2|38~feeder_combout $end
$var wire 1 n register_2|38~q $end
$var wire 1 o inst25|4~combout $end
$var wire 1 p inst5|10~1_combout $end
$var wire 1 q inst|10~q $end
$var wire 1 r inst10|22~0_combout $end
$var wire 1 s DIN0~input_o $end
$var wire 1 t inst5|9~0_combout $end
$var wire 1 u register_1|41~q $end
$var wire 1 v register_1|40~feeder_combout $end
$var wire 1 w register_1|40~q $end
$var wire 1 x register_1|39~feeder_combout $end
$var wire 1 y register_1|39~q $end
$var wire 1 z register_1|38~feeder_combout $end
$var wire 1 { register_1|38~q $end
$var wire 1 | inst5|9~1_combout $end
$var wire 1 } inst|9~q $end
$var wire 1 ~ inst10|22~1_combout $end
$upscope $end
$upscope $end
$enddefinitions $end
#0
$dumpvars
1!
0"
1#
0$
1%
0&
0'
0(
1)
0*
0+
0,
0-
0.
0/
00
01
02
03
04
05
16
07
08
09
0:
0;
1<
0=
1>
x?
1@
1A
1B
0C
0D
0E
0F
0G
1H
0I
0J
0K
0L
0M
0N
0O
0P
0Q
0R
0S
1T
0U
1V
1W
1X
0Y
1Z
0[
0\
1]
1^
0_
0`
1a
0b
0c
0d
0e
1f
0g
0h
0i
0j
0k
0l
0m
0n
1o
1p
0q
1r
0s
0t
0u
0v
0w
0x
0y
0z
0{
0|
0}
0~
$end
#5000
0!
0W
0X
1b
1R
1e
14
1c
0a
0T
0)
#10000
1!
1W
1X
1q
1C
19
#15000
0!
0W
0X
0b
1d
1S
0R
04
15
1a
#20000
1!
1W
1X
#25000
0!
0W
0X
1b
1R
14
0c
0a
#30000
0%
1!
0Z
1W
1X
1\
0H
06
#35000
0!
0W
0X
0b
0d
0S
0R
0e
04
05
1a
1T
1)
#40000
0#
1%
1!
0]
1Z
1W
1X
0\
1H
0^
16
0p
0V
0<
#45000
0!
0W
0X
1b
1R
1e
14
1c
0a
0T
0)
#50000
1!
1W
1X
0q
0C
09
#55000
0!
0W
0X
0b
1d
1S
0R
04
15
1a
#60000
1!
1W
1X
#65000
0!
0W
0X
1b
1R
14
0c
0a
#70000
0%
1!
0Z
1W
1X
1\
0H
06
#75000
0!
0W
0X
0b
0d
0S
0R
0e
04
05
1a
1T
1)
#80000
1"
1%
1!
1s
1Z
1W
1X
0\
1H
1t
16
1|
1U
1;
#85000
0!
0W
0X
1b
1R
1e
14
1c
0a
0T
0)
#90000
1!
1W
1X
1}
1I
18
#95000
0!
0W
0X
0b
1d
1S
0R
04
15
1a
#100000
1!
1W
1X
#105000
0!
0W
0X
1b
1R
14
0c
0a
#110000
0%
1!
0Z
1W
1X
1\
0H
06
#115000
0!
0W
0X
0b
0d
0S
0R
0e
04
05
1a
1T
1)
#120000
1#
1%
1!
1]
1Z
1W
1X
0\
1H
1^
16
1p
1V
1<
#125000
0!
0W
0X
1b
1R
1e
14
1c
0a
0T
0)
#130000
1!
1W
1X
1q
1C
19
#135000
0!
0W
0X
0b
1d
1S
0R
04
15
1a
#140000
1!
1W
1X
#145000
0!
0W
0X
1b
1R
14
0c
0a
#150000
0%
1!
0Z
1W
1X
1\
0H
06
#155000
0!
0W
0X
0b
0d
0S
0R
0e
04
05
1a
1T
1)
#160000
0#
1!
0]
1W
1X
#165000
0!
0W
0X
1b
1R
1e
14
1c
0a
0T
0)
#170000
1!
1W
1X
#175000
0!
0W
0X
0b
1d
1S
0R
04
15
1a
#180000
1!
1W
1X
#185000
0!
0W
0X
1b
1R
14
0c
0a
#190000
1'
1&
1!
1_
1`
1W
1X
0e
1T
1)
#195000
0!
0W
0X
0b
0d
0S
0R
1e
04
05
1a
0T
0)
#200000
1(
1!
1Y
1W
1X
0r
#205000
0!
0W
0X
1b
1R
14
1c
0a
#210000
1!
1W
1X
#215000
0!
0W
0X
0b
1d
1S
0R
04
15
1a
#220000
1!
1W
1X
#225000
0!
0W
0X
1b
1R
0e
14
0c
0a
1T
0f
1)
1~
1E
1F
1:
1*
1g
1D
1+
#230000
1!
1W
1X
1u
1h
1M
1J
1,
10
1v
1i
#235000
0!
0W
0X
0b
0d
0S
0R
1e
04
05
1a
0T
1f
0)
0~
0E
0F
0:
0*
0g
0D
0+
#240000
0(
1!
0Y
1W
1X
1r
1w
0u
1j
0h
0M
1N
0J
1K
1-
0,
11
00
1x
0v
1k
0i
#245000
0!
0W
0X
1b
1R
14
1c
0a
#250000
1%
1!
1Z
1W
1X
0\
1H
0^
16
0p
0V
0<
1y
0w
1l
0j
0N
1Q
0K
1L
1.
0-
12
01
1z
0x
1m
0k
#255000
0!
0W
0X
0b
1d
1S
0R
04
15
1a
#260000
1!
1W
1X
1{
0y
0q
1n
0l
0Q
1O
0C
0L
1P
1/
0.
09
13
02
1~
0z
1g
0m
1D
1E
1*
1+
#265000
0!
0W
0X
1b
1R
0e
14
0c
0a
1T
1)
#270000
1!
1W
1X
0{
1u
0n
1h
1M
0O
1J
0P
0/
1,
03
10
0~
1v
0g
1i
0D
0E
0*
0+
#275000
0!
0W
0X
0b
0d
0S
0R
1e
04
05
1a
0T
0)
#280000
0'
0%
1!
0_
0Z
1W
1X
1\
0H
06
1w
0u
1j
0h
0M
1N
0J
1K
1-
0,
11
00
1x
0v
1k
0i
#285000
0!
0W
0X
1b
1R
0e
14
1c
0a
1T
1)
#290000
0"
1(
1!
0s
1Y
1W
1X
0r
0f
1F
1:
1~
1E
1*
1y
0w
1l
0j
0N
1Q
0K
1L
1.
0-
12
01
1z
0x
1m
0k
#295000
0!
0W
0X
0b
1d
1S
0R
1e
04
15
1a
0T
1f
0)
0~
0E
0F
0:
0*
#300000
1!
1W
1X
1{
0y
1n
0l
0Q
1O
0L
1P
1/
0.
13
02
1~
0z
1g
0m
1D
1E
1*
1+
#305000
0!
0W
0X
1b
1R
14
0c
0a
#310000
1!
1W
1X
0{
1u
0n
1h
1M
0O
1J
0P
0/
1,
03
10
0~
1v
0g
1i
0D
0E
0*
0+
#315000
0!
0W
0X
0b
0d
0S
0R
04
05
1a
#320000
1!
1W
1X
1w
0u
1j
0h
0M
1N
0J
1K
1-
0,
11
00
1x
0v
1k
0i
#325000
0!
0W
0X
1b
1R
0e
14
1c
0a
1T
0f
1)
1~
1E
1F
1:
1*
#330000
0(
1!
0Y
1W
1X
1r
1f
0F
0:
0~
0E
0*
1y
0w
1u
1l
0j
0N
1Q
1J
0K
1L
1.
0-
1,
12
01
1z
0x
1v
1m
0k
#335000
0!
0W
0X
0b
1d
1S
0R
1e
04
15
1a
0T
0)
#340000
1%
1!
1Z
1W
1X
0\
1H
0t
16
0|
0U
0;
1{
0y
1w
0u
1n
0l
0Q
1O
0J
1K
0L
1P
1/
0.
1-
0,
13
02
1~
0z
1x
0v
1g
0m
1D
1E
1*
1+
#345000
0!
0W
0X
1b
1R
14
0c
0a
#350000
1!
1W
1X
0}
0{
1y
0w
1u
0n
1h
1M
0O
1J
0K
1L
0P
0I
08
0/
1.
0-
1,
03
10
0~
1z
0x
1v
0g
1i
0D
0E
0*
0+
#355000
0!
0W
0X
0b
0d
0S
0R
04
05
1a
#360000
1!
1W
1X
1{
0y
1w
0u
1j
0h
0M
1N
0J
1K
0L
1P
1/
0.
1-
0,
11
00
1~
0z
1x
0v
1k
0i
1E
1*
#365000
0!
0W
0X
1b
1R
0e
14
1c
0a
1T
1)
#370000
0&
0%
1!
0`
0Z
1W
1X
1e
1\
0H
0T
0)
06
0{
1y
0w
1u
1l
0j
0N
1Q
1J
0K
1L
0P
0/
1.
0-
1,
12
01
0~
1z
0x
1v
1m
0k
0E
0*
#375000
0!
0W
0X
0b
1d
1S
0R
04
15
1a
#380000
1(
1!
1Y
1W
1X
0r
1{
0y
1w
0u
1n
0l
0Q
1O
0J
1K
0L
1P
1/
0.
1-
0,
13
02
1~
0z
1x
0v
1g
0m
1D
1E
1*
1+
#385000
0!
0W
0X
1b
1R
14
0c
0a
#390000
1!
1W
1X
0{
1y
0w
1u
0n
1h
1M
0O
1J
0K
1L
0P
0/
1.
0-
1,
03
10
0~
1z
0x
1v
0g
1i
0D
0E
0*
0+
#395000
0!
0W
0X
0b
0d
0S
0R
0e
04
05
1a
1T
0f
1)
1F
1:
#400000
1!
1W
1X
1{
0y
1w
0u
1j
0h
0M
1N
0J
1K
0L
1P
1/
0.
1-
0,
11
00
0z
1x
0v
1k
0i
#405000
0!
0W
0X
1b
1R
1e
14
1c
0a
0T
1f
0)
1~
1E
0F
0:
1*
#410000
1!
1W
1X
0{
1y
0w
1u
1l
0j
0N
1Q
1J
0K
1L
0P
0/
1.
0-
1,
12
01
0~
1z
0x
1v
1m
0k
0E
0*
#415000
0!
0W
0X
0b
1d
1S
0R
04
15
1a
#420000
0(
1!
0Y
1W
1X
1r
1{
0y
1w
0u
1n
0l
0Q
1O
0J
1K
0L
1P
1/
0.
1-
0,
13
02
1~
0z
1x
0v
1g
0m
1D
1E
1*
1+
#425000
0!
0W
0X
1b
1R
14
0c
0a
#430000
1#
1%
1!
1]
1Z
1W
1X
0\
1H
1^
16
1p
1V
1<
0{
1y
0w
1u
0n
1h
1M
0O
1J
0K
1L
0P
0/
1.
0-
1,
03
10
0~
1z
0x
1v
0g
1i
0D
0E
0*
0+
#435000
0!
0W
0X
0b
0d
0S
0R
0e
04
05
1a
1T
1)
#440000
1!
1W
1X
1{
0y
1w
0u
1q
1j
0h
0M
1N
1C
0J
1K
0L
1P
1/
0.
1-
0,
19
11
00
1~
0z
1x
0v
1k
0i
1E
1*
#445000
0!
0W
0X
1b
1R
1e
14
1c
0a
0T
0)
#450000
1!
1W
1X
0{
1y
0w
1u
1l
0j
0N
1Q
1J
0K
1L
0P
0/
1.
0-
1,
12
01
0~
1z
0x
1v
1m
0k
0E
0*
#455000
0!
0W
0X
0b
1d
1S
0R
04
15
1a
#460000
1'
0%
1!
1_
0Z
1W
1X
0e
1\
0H
1T
1)
06
1{
0y
1w
0u
1n
0l
0Q
1O
0J
1K
0L
1P
1/
0.
1-
0,
13
02
1~
0z
1x
0v
1g
0m
1D
1E
1*
1+
#465000
0!
0W
0X
1b
1R
1e
14
0c
0a
0T
0)
#470000
1(
0#
1!
1Y
0]
1W
1X
0r
0{
1y
0w
1u
0n
1h
1M
0O
1J
0K
1L
0P
0/
1.
0-
1,
03
10
0~
1z
0x
1v
0g
1i
0D
0E
0*
0+
#475000
0!
0W
0X
0b
0d
0S
0R
04
05
1a
#480000
1!
1W
1X
1{
0y
1w
0u
1j
0h
0M
1N
0J
1K
0L
1P
1/
0.
1-
0,
11
00
1~
0z
1x
0v
1k
0i
1E
1*
#485000
0!
0W
0X
1b
1R
14
1c
0a
#490000
1!
1W
1X
0{
1y
0w
1u
1l
0j
0N
1Q
1J
0K
1L
0P
0/
1.
0-
1,
12
01
0~
1z
0x
1v
1m
0k
0E
0*
#495000
0!
0W
0X
0b
1d
1S
0R
0e
04
15
1a
1T
0f
1)
1F
1:
1g
1D
1+
#500000
1!
1W
1X
1{
0y
1w
0u
1n
0l
1h
1M
0Q
1O
0J
1K
0L
1P
1/
0.
1-
0,
13
02
10
0z
1x
0v
0m
1i
#505000
0!
0W
0X
1b
1R
1e
14
0c
0a
0T
1f
0)
1~
1E
0F
0:
1*
#510000
0(
1!
0Y
1W
1X
1r
0{
1y
0w
1u
0n
1j
1N
0O
1J
0K
1L
0P
0/
1.
0-
1,
03
11
0~
1z
0x
1v
0g
1k
0D
0E
0*
0+
#515000
0!
0W
0X
0b
0d
0S
0R
04
05
1a
#520000
1!
1W
1X
1{
0y
1w
0u
1l
0h
0M
1Q
0J
1K
0L
1P
1/
0.
1-
0,
12
00
1~
0z
1x
0v
1m
0i
1E
1*
#525000
0!
0W
0X
1b
1R
14
1c
0a
#530000
1!
1W
1X
0{
1y
0w
1u
1n
0j
0N
1O
1J
0K
1L
0P
0/
1.
0-
1,
13
01
0~
1z
0x
1v
1g
0k
1D
0E
0*
1+
#535000
0!
0W
0X
0b
1d
1S
0R
0e
04
15
1a
1T
1)
#540000
1!
1W
1X
1{
0y
1w
0u
0l
1h
1M
0Q
0J
1K
0L
1P
1/
0.
1-
0,
02
10
1~
0z
1x
0v
0m
1i
1E
1*
#545000
0!
0W
0X
1b
1R
1e
14
0c
0a
0T
0)
#550000
0'
1!
0_
1W
1X
0{
1y
0w
1u
0n
1j
1N
0O
1J
0K
1L
0P
0/
1.
0-
1,
03
11
0~
1z
0x
1v
0g
1k
0D
0E
0*
0+
#555000
0!
0W
0X
0b
0d
0S
0R
0e
04
05
1a
1T
1)
#560000
1!
1W
1X
1{
0y
1w
0u
1l
0h
0M
1Q
0J
1K
0L
1P
1/
0.
1-
0,
12
00
1~
0z
1x
0v
1m
0i
1E
1*
#565000
0!
0W
0X
1b
1R
1e
14
1c
0a
0T
0)
#570000
1!
1W
1X
0{
1y
0w
1u
1n
0j
0N
1O
1J
0K
1L
0P
0/
1.
0-
1,
13
01
0~
1z
0x
1v
1g
0k
1D
0E
0*
1+
#575000
0!
0W
0X
0b
1d
1S
0R
04
15
1a
#580000
1!
1W
1X
1{
0y
1w
0u
0l
1h
1M
0Q
0J
1K
0L
1P
1/
0.
1-
0,
02
10
1~
0z
1x
0v
0m
1i
1E
1*
#585000
0!
0W
0X
1b
1R
14
0c
0a
#590000
1!
1W
1X
0{
1y
0w
1u
0n
1j
1N
0O
1J
0K
1L
0P
0/
1.
0-
1,
03
11
0~
1z
0x
1v
0g
1k
0D
0E
0*
0+
#595000
0!
0W
0X
0b
0d
0S
0R
0e
04
05
1a
1T
1)
#600000
1!
1W
1X
1{
0y
1w
0u
1l
0h
0M
1Q
0J
1K
0L
1P
1/
0.
1-
0,
12
00
1~
0z
1x
0v
1m
0i
1E
1*
#605000
0!
0W
0X
1b
1R
1e
14
1c
0a
0T
0)
#610000
1!
1W
1X
0{
1y
0w
1u
1n
0j
0N
1O
1J
0K
1L
0P
0/
1.
0-
1,
13
01
0~
1z
0x
1v
1g
0k
1D
0E
0*
1+
#615000
0!
0W
0X
0b
1d
1S
0R
04
15
1a
#620000
1!
1W
1X
1{
0y
1w
0u
0l
1h
1M
0Q
0J
1K
0L
1P
1/
0.
1-
0,
02
10
1~
0z
1x
0v
0m
1i
1E
1*
#625000
0!
0W
0X
1b
1R
14
0c
0a
#630000
1&
1'
1!
1`
1_
1W
1X
0e
1T
1)
0{
1y
0w
1u
0n
1j
1N
0O
1J
0K
1L
0P
0/
1.
0-
1,
03
11
0~
1z
0x
1v
0g
1k
0D
0E
0*
0+
#635000
0!
0W
0X
0b
0d
0S
0R
1e
04
05
1a
0T
0)
#640000
1$
1!
1[
1W
1X
1{
0y
1w
0u
1l
0h
0M
1Q
0J
1K
0L
1P
1/
0.
1-
0,
12
00
1~
0z
1x
0v
1m
0i
1E
1*
#645000
0!
0W
0X
1b
1R
14
1c
0a
#650000
1!
1W
1X
0{
1y
0w
1u
1n
0j
0N
1O
1J
0K
1L
0P
0/
1.
0-
1,
13
01
0~
1z
0x
1v
1g
0k
1D
0E
0*
1+
#655000
0!
0W
0X
0b
1d
1S
0R
04
15
1a
#660000
1!
1W
1X
1{
0y
1w
0u
0l
1h
1M
0Q
0J
1K
0L
1P
1/
0.
1-
0,
02
10
1~
0z
1x
0v
0m
1i
1E
1*
#665000
0!
0W
0X
1b
1R
0e
14
0c
0a
1T
0o
1)
1G
17
1|
1U
1;
#670000
1!
1W
1X
1}
0{
1y
0w
1u
0n
1j
1N
0O
1J
0K
1L
0P
1I
1t
18
0/
1.
0-
1,
03
11
0~
0|
1z
0x
1v
0p
0g
1k
0D
0V
0U
0E
0*
0;
0<
0+
#675000
0!
0W
0X
0b
0d
0S
0R
1e
04
05
1a
0T
1o
0)
0G
07
1|
1p
1V
1U
1;
1<
#680000
0'
0$
1!
0_
0[
1W
1X
1{
0y
1w
0u
1l
0h
0M
1Q
0J
1K
0L
1P
1/
0.
1-
0,
12
00
1~
0z
1x
0v
1m
0i
1E
1*
#685000
0!
0W
0X
1b
1R
0e
14
1c
0a
1T
1)
#690000
1$
1!
1[
1W
1X
0o
1G
17
0p
0V
0<
0{
1y
0w
1u
1n
0j
0N
1O
1J
0K
1L
0P
0/
1.
0-
1,
13
01
0~
0|
1z
0x
1v
1p
1g
0k
1D
1V
0U
0E
0*
0;
1<
1+
#695000
0!
0W
0X
0b
1d
1S
0R
1e
04
15
1a
0T
1o
0)
0G
07
1|
1U
1;
#700000
1!
1W
1X
1{
0y
1w
0u
0l
1h
1M
0Q
0J
1K
0L
1P
1/
0.
1-
0,
02
10
1~
0z
1x
0v
0m
1i
1E
1*
#705000
0!
0W
0X
1b
1R
14
0c
0a
#710000
1!
1W
1X
0{
1y
0w
1u
0n
1j
1N
0O
1J
0K
1L
0P
0/
1.
0-
1,
03
11
0~
1z
0x
1v
0g
1k
0D
0E
0*
0+
#715000
0!
0W
0X
0b
0d
0S
0R
04
05
1a
#720000
1!
1W
1X
1{
0y
1w
0u
1l
0h
0M
1Q
0J
1K
0L
1P
1/
0.
1-
0,
12
00
1~
0z
1x
0v
1m
0i
1E
1*
#725000
0!
0W
0X
1b
1R
0e
14
1c
0a
1T
0o
1)
1G
17
0p
0V
0<
#730000
0&
0$
1!
0`
0[
1W
1X
1e
1o
0G
0T
0)
07
1p
1V
1<
0{
1y
0w
1u
0q
1n
0j
0N
1O
0C
1J
0K
1L
0P
0^
0/
1.
0-
1,
09
13
01
0~
1z
0x
1v
1g
0k
1D
0E
0*
1+
0p
0V
0<
#735000
0!
0W
0X
0b
1d
1S
0R
04
15
1a
#740000
1$
1!
1[
1W
1X
1{
0y
1w
0u
0l
1h
1M
0Q
0J
1K
0L
1P
1/
0.
1-
0,
02
10
1~
0z
1x
0v
0m
1i
1E
1*
#745000
0!
0W
0X
1b
1R
14
0c
0a
#750000
1!
1W
1X
0{
1y
0w
1u
0n
1j
1N
0O
1J
0K
1L
0P
0/
1.
0-
1,
03
11
0~
1z
0x
1v
0g
1k
0D
0E
0*
0+
#755000
0!
0W
0X
0b
0d
0S
0R
0e
04
05
1a
1T
0o
1)
1G
17
0|
0U
0;
#760000
1!
1W
1X
0}
1{
0y
1w
0u
1l
0h
0M
1Q
0J
1K
0L
1P
0I
0t
08
1/
0.
1-
0,
12
00
1~
1|
0z
1x
0v
1m
0i
1U
1E
1*
1;
#765000
0!
0W
0X
1b
1R
1e
14
1c
0a
0T
1o
0)
0G
07
0|
0U
0;
#770000
1!
1W
1X
0{
1y
0w
1u
1n
0j
0N
1O
1J
0K
1L
0P
0/
1.
0-
1,
13
01
0~
1z
0x
1v
1g
0k
1D
0E
0*
1+
#775000
0!
0W
0X
0b
1d
1S
0R
04
15
1a
#780000
1'
0$
1!
1_
0[
1W
1X
0e
1T
1)
1{
0y
1w
0u
0l
1h
1M
0Q
0J
1K
0L
1P
1/
0.
1-
0,
02
10
1~
0z
1x
0v
0m
1i
1E
1*
#785000
0!
0W
0X
1b
1R
1e
14
0c
0a
0T
0)
#790000
1$
1!
1[
1W
1X
0{
1y
0w
1u
0n
1j
1N
0O
1J
0K
1L
0P
0/
1.
0-
1,
03
11
0~
1z
0x
1v
0g
1k
0D
0E
0*
0+
#795000
0!
0W
0X
0b
0d
0S
0R
04
05
1a
#800000
1!
1W
1X
1{
0y
1w
0u
1l
0h
0M
1Q
0J
1K
0L
1P
1/
0.
1-
0,
12
00
1~
0z
1x
0v
1m
0i
1E
1*
#805000
0!
0W
0X
1b
1R
14
1c
0a
#810000
1!
1W
1X
0{
1y
0w
1u
1n
0j
0N
1O
1J
0K
1L
0P
0/
1.
0-
1,
13
01
0~
1z
0x
1v
1g
0k
1D
0E
0*
1+
#815000
0!
0W
0X
0b
1d
1S
0R
0e
04
15
1a
1T
0o
1)
1G
17
1p
1V
1<
#820000
1!
1W
1X
1{
0y
1w
0u
1q
0l
1h
1M
0Q
1C
0J
1K
0L
1P
1^
1/
0.
1-
0,
19
02
10
1~
1|
0z
1x
0v
0m
1i
1U
1E
1*
1;
#825000
0!
0W
0X
1b
1R
1e
14
0c
0a
0T
1o
0)
0G
07
0|
0U
0;
#830000
0'
0$
1!
0_
0[
1W
1X
0{
1y
0w
1u
0n
1j
1N
0O
1J
0K
1L
0P
0/
1.
0-
1,
03
11
0~
1z
0x
1v
0g
1k
0D
0E
0*
0+
#835000
0!
0W
0X
0b
0d
0S
0R
0e
04
05
1a
1T
1)
#840000
1!
1W
1X
1{
0y
1w
0u
1l
0h
0M
1Q
0J
1K
0L
1P
1/
0.
1-
0,
12
00
1~
0z
1x
0v
1m
0i
1E
1*
#845000
0!
0W
0X
1b
1R
1e
14
1c
0a
0T
0)
#850000
1!
1W
1X
0{
1y
0w
1u
1n
0j
0N
1O
1J
0K
1L
0P
0/
1.
0-
1,
13
01
0~
1z
0x
1v
1g
0k
1D
0E
0*
1+
#855000
0!
0W
0X
0b
1d
1S
0R
04
15
1a
#860000
1!
1W
1X
1{
0y
1w
0u
0l
1h
1M
0Q
0J
1K
0L
1P
1/
0.
1-
0,
02
10
1~
0z
1x
0v
0m
1i
1E
1*
#865000
0!
0W
0X
1b
1R
14
0c
0a
#870000
1!
1W
1X
0{
1y
0w
1u
0n
1j
1N
0O
1J
0K
1L
0P
0/
1.
0-
1,
03
11
0~
1z
0x
1v
0g
1k
0D
0E
0*
0+
#875000
0!
0W
0X
0b
0d
0S
0R
0e
04
05
1a
1T
1)
#880000
1!
1W
1X
1{
0y
1w
0u
1l
0h
0M
1Q
0J
1K
0L
1P
1/
0.
1-
0,
12
00
1~
0z
1x
0v
1m
0i
1E
1*
#885000
0!
0W
0X
1b
1R
1e
14
1c
0a
0T
0)
#890000
1!
1W
1X
0{
1y
0w
1u
1n
0j
0N
1O
1J
0K
1L
0P
0/
1.
0-
1,
13
01
0~
1z
0x
1v
1g
0k
1D
0E
0*
1+
#895000
0!
0W
0X
0b
1d
1S
0R
04
15
1a
#900000
1!
1W
1X
1{
0y
1w
0u
0l
1h
1M
0Q
0J
1K
0L
1P
1/
0.
1-
0,
02
10
1~
0z
1x
0v
0m
1i
1E
1*
#905000
0!
0W
0X
1b
1R
14
0c
0a
#910000
1!
1W
1X
0{
1y
0w
1u
0n
1j
1N
0O
1J
0K
1L
0P
0/
1.
0-
1,
03
11
0~
1z
0x
1v
0g
1k
0D
0E
0*
0+
#915000
0!
0W
0X
0b
0d
0S
0R
0e
04
05
1a
1T
1)
#920000
1!
1W
1X
1{
0y
1w
0u
1l
0h
0M
1Q
0J
1K
0L
1P
1/
0.
1-
0,
12
00
1~
0z
1x
0v
1m
0i
1E
1*
#925000
0!
0W
0X
1b
1R
1e
14
1c
0a
0T
0)
#930000
1!
1W
1X
0{
1y
0w
1u
1n
0j
0N
1O
1J
0K
1L
0P
0/
1.
0-
1,
13
01
0~
1z
0x
1v
1g
0k
1D
0E
0*
1+
#935000
0!
0W
0X
0b
1d
1S
0R
04
15
1a
#940000
1!
1W
1X
1{
0y
1w
0u
0l
1h
1M
0Q
0J
1K
0L
1P
1/
0.
1-
0,
02
10
1~
0z
1x
0v
0m
1i
1E
1*
#945000
0!
0W
0X
1b
1R
14
0c
0a
#950000
1!
1W
1X
0{
1y
0w
1u
0n
1j
1N
0O
1J
0K
1L
0P
0/
1.
0-
1,
03
11
0~
1z
0x
1v
0g
1k
0D
0E
0*
0+
#955000
0!
0W
0X
0b
0d
0S
0R
0e
04
05
1a
1T
1)
#960000
1!
1W
1X
1{
0y
1w
0u
1l
0h
0M
1Q
0J
1K
0L
1P
1/
0.
1-
0,
12
00
1~
0z
1x
0v
1m
0i
1E
1*
#965000
0!
0W
0X
1b
1R
1e
14
1c
0a
0T
0)
#970000
1!
1W
1X
0{
1y
0w
1u
1n
0j
0N
1O
1J
0K
1L
0P
0/
1.
0-
1,
13
01
0~
1z
0x
1v
1g
0k
1D
0E
0*
1+
#975000
0!
0W
0X
0b
1d
1S
0R
04
15
1a
#980000
1!
1W
1X
1{
0y
1w
0u
0l
1h
1M
0Q
0J
1K
0L
1P
1/
0.
1-
0,
02
10
1~
0z
1x
0v
0m
1i
1E
1*
#985000
0!
0W
0X
1b
1R
14
0c
0a
#990000
1!
1W
1X
0{
1y
0w
1u
0n
1j
1N
0O
1J
0K
1L
0P
0/
1.
0-
1,
03
11
0~
1z
0x
1v
0g
1k
0D
0E
0*
0+
#995000
0!
0W
0X
0b
0d
0S
0R
0e
04
05
1a
1T
1)
